out/testbench/my_rc_tb.1544023038.6897762.vcd
$date
    Wed Dec  5 16:17:18 2018
$end
$version
    MyHDL 0.10
$end
$timescale
    1ns
$end

$scope module my_rc_tb $end
$var reg 1 ! reset $end
$var reg 1 " clk $end
$var reg 1 # axis_raw_tvalid $end
$var reg 32 $ axis_raw_tdata $end
$var reg 1 % axis_raw_tlast $end
$var reg 1 & axis_raw_tready $end
$var reg 1 ' axis_sum_tready $end
$var reg 1 ( axis_sum_tlast $end
$scope module clk_stim0 $end
$var reg 1 " clk $end
$upscope $end
$scope module my_rc $end
$var reg 32 ) vin $end
$var reg 1 ! reset $end
$var reg 1 " clk $end
$var real 1 * state $end
$var reg 32 + d $end
$var reg 32 , Vout $end
$var reg 32 - Vin $end
$var reg 1 . axis_m_sum_tvalid $end
$var reg 1 ( axis_m_sum_tlast $end
$var reg 1 & axis_s_raw_tready $end
$var reg 1 # axis_s_raw_tvalid $end
$var reg 32 $ axis_s_raw_tdata $end
$var reg 32 / axis_m_sum_tdata $end
$var reg 1 % axis_s_raw_tlast $end
$var reg 1 ' axis_m_sum_tready $end
$upscope $end
$upscope $end

$enddefinitions $end
$dumpvars
0!
0"
0#
b00000000000000000000000000000000 $
0%
0&
0'
0(
b00000000000000000000000000000000 )
sSTART *
b00000000000000000000000000000000 +
b00000000000000000000000000000000 ,
b00000000000000000000000000000000 -
0.
b00000000000000000000000000000000 /
$end
#5
1"
#10
0"
#15
1"
#20
0"
#25
1"
#30
0"
#35
1"
#40
0"
#45
1"
#50
0"
#54
#55
1"
#60
0"
1!
#65
1"
sCALCULATE *
#70
0"
1#
b00000000000000000000000001110100 $
#75
1"
1.
1&
b00000000000000000111010000000000 -
#80
0"
#85
1"
b00000000000000000000111010000000 +
#90
0"
b00000000000000000000000001100111 $
#95
1"
b00000000000000000110011100000000 -
b00000000000000000000111010000000 ,
#100
0"
b00000000000000000000000010001100 $
#105
1"
b00000000000000001000110000000000 -
b00000000000000000000101100010000 +
b00000000000000000001110100000000 ,
b00000000000000000000000000001110 /
#110
0"
b00000000000000000000000001111100 $
#115
1"
b00000000000000000111110000000000 -
b00000000000000000000110111100000 +
b00000000000000000010100000010000 ,
b00000000000000000000000000011101 /
#120
0"
b00000000000000000000000010001110 $
#125
1"
b00000000000000001000111000000000 -
b00000000000000000000101001111110 +
b00000000000000000011010111110000 ,
b00000000000000000000000000101000 /
#130
0"
b00000000000000000000000010001011 $
#135
1"
b00000000000000001000101100000000 -
b00000000000000000000101100000010 +
b00000000000000000100000001101110 ,
b00000000000000000000000000110101 /
#140
0"
b00000000000000000000000010001100 $
#145
1"
b00000000000000001000110000000000 -
b00000000000000000000100101010010 +
b00000000000000000100101101110000 ,
b00000000000000000000000001000000 /
#150
0"
b00000000000000000000000001111000 $
#155
1"
b00000000000000000111100000000000 -
b00000000000000000000100000010010 +
b00000000000000000101010011000010 ,
b00000000000000000000000001001011 /
#160
0"
b00000000000000000000000010001010 $
#165
1"
b00000000000000001000101000000000 -
b00000000000000000000010001100111 +
b00000000000000000101110011010100 ,
b00000000000000000000000001010100 /
#170
0"
b00000000000000000000000010000111 $
#175
1"
b00000000000000001000011100000000 -
b00000000000000000000010110100101 +
b00000000000000000110000100111011 ,
b00000000000000000000000001011100 /
#180
0"
b00000000000000000000000001111011 $
#185
1"
b00000000000000000111101100000000 -
b00000000000000000000010010111000 +
b00000000000000000110011011100000 ,
b00000000000000000000000001100001 /
#190
0"
b00000000000000000000000010001100 $
#195
1"
b00000000000000001000110000000000 -
b00000000000000000000001010000100 +
b00000000000000000110101110011000 ,
b00000000000000000000000001100110 /
#200
0"
b00000000000000000000000010000111 $
#205
1"
b00000000000000001000011100000000 -
b00000000000000000000010000001101 +
b00000000000000000110111000011100 ,
b00000000000000000000000001101011 /
#210
0"
b00000000000000000000000010010111 $
#215
1"
b00000000000000001001011100000000 -
b00000000000000000000001100011100 +
b00000000000000000111001000101001 ,
b00000000000000000000000001101110 /
#220
0"
b00000000000000000000000001110011 $
#225
1"
b00000000000000000111001100000000 -
b00000000000000000000010010011010 +
b00000000000000000111010101000101 ,
b00000000000000000000000001110010 /
#230
0"
b00000000000000000000000010001111 $
#235
1"
b00000000000000001000111100000000 -
b11111111111111111111111110110111 +
b00000000000000000111100111011111 ,
b00000000000000000000000001110101 /
#240
0"
b00000000000000000000000001111111 $
#245
1"
b00000000000000000111111100000000 -
b00000000000000000000001010100100 +
b00000000000000000111100110010110 ,
b00000000000000000000000001111001 /
#250
0"
b00000000000000000000000010000100 $
#255
1"
b00000000000000001000010000000000 -
b00000000000000000000000010101101 +
b00000000000000000111110000111010 ,
#260
0"
b00000000000000000000000010010011 $
#265
1"
b00000000000000001001001100000000 -
b00000000000000000000000011111000 +
b00000000000000000111110011100111 ,
b00000000000000000000000001111100 /
#270
0"
b00000000000000000000000010000110 $
#275
1"
b00000000000000001000011000000000 -
b00000000000000000000001011000011 +
b00000000000000000111110111011111 ,
#280
0"
b00000000000000000000000010011000 $
#285
1"
b00000000000000001001100000000000 -
b00000000000000000000000100000100 +
b00000000000000001000000010100010 ,
b00000000000000000000000001111101 /
#290
0"
b00000000000000000000000010010101 $
#295
1"
b00000000000000001001010100000000 -
b00000000000000000000001011101011 +
b00000000000000001000000110100110 ,
b00000000000000000000000010000000 /
#300
0"
b00000000000000000000000010001100 $
#305
1"
b00000000000000001000110000000000 -
b00000000000000000000001001101011 +
b00000000000000001000010010010001 ,
b00000000000000000000000010000001 /
#310
0"
b00000000000000000000000010010001 $
#315
1"
b00000000000000001001000100000000 -
b00000000000000000000000011101101 +
b00000000000000001000011011111100 ,
b00000000000000000000000010000100 /
#320
0"
b00000000000000000000000010011110 $
#325
1"
b00000000000000001001111000000000 -
b00000000000000000000000101000000 +
b00000000000000001000011111101001 ,
b00000000000000000000000010000110 /
#330
0"
b00000000000000000000000001111010 $
#335
1"
b00000000000000000111101000000000 -
b00000000000000000000001011000010 +
b00000000000000001000100100101001 ,
b00000000000000000000000010000111 /
#340
0"
b00000000000000000000000010011100 $
#345
1"
b00000000000000001001110000000000 -
b11111111111111111111111000011010 +
b00000000000000001000101111101011 ,
b00000000000000000000000010001001 /
#350
0"
b00000000000000000000000010000010 $
#355
1"
b00000000000000001000001000000000 -
b00000000000000000000001000000010 +
b00000000000000001000101000000101 ,
b00000000000000000000000010001011 /
#360
0"
b00000000000000000000000010010000 $
#365
1"
b00000000000000001001000000000000 -
b11111111111111111111111011111111 +
b00000000000000001000110000000111 ,
b00000000000000000000000010001010 /
#370
0"
b00000000000000000000000001111110 $
#375
1"
b00000000000000000111111000000000 -
b00000000000000000000000001111111 +
b00000000000000001000101100000110 ,
b00000000000000000000000010001100 /
#380
0"
b00000000000000000000000010010100 $
#385
1"
b00000000000000001001010000000000 -
b11111111111111111111111001011111 +
b00000000000000001000101110000101 ,
b00000000000000000000000010001011 /
#390
0"
b00000000000000000000000010000011 $
#395
1"
b00000000000000001000001100000000 -
b00000000000000000000000100001111 +
b00000000000000001000100111100100 ,
#400
0"
#405
1"
b11111111111111111111111100100011 +
b00000000000000001000101011110011 ,
b00000000000000000000000010001001 /
#410
0"
b00000000000000000000000010010000 $
#415
1"
b00000000000000001001000000000000 -
b11111111111111111111111100000001 +
b00000000000000001000101000010110 ,
b00000000000000000000000010001010 /
#420
0"
b00000000000000000000000010010100 $
#425
1"
b00000000000000001001010000000000 -
b00000000000000000000000010111101 +
b00000000000000001000100100010111 ,
#430
0"
b00000000000000000000000010100000 $
#435
1"
b00000000000000001010000000000000 -
b00000000000000000000000101011101 +
b00000000000000001000100111010100 ,
b00000000000000000000000010001001 /
#440
0"
b00000000000000000000000010010000 $
#445
1"
b00000000000000001001000000000000 -
b00000000000000000000001011000101 +
b00000000000000001000101100110001 ,
#450
0"
b00000000000000000000000010000110 $
#455
1"
b00000000000000001000011000000000 -
b00000000000000000000000010011001 +
b00000000000000001000110111110110 ,
b00000000000000000000000010001011 /
#460
0"
b00000000000000000000000010000001 $
#465
1"
b00000000000000001000000100000000 -
b11111111111111111111111100000001 +
b00000000000000001000111010001111 ,
b00000000000000000000000010001101 /
#470
0"
b00000000000000000000000010100111 $
#475
1"
b00000000000000001010011100000000 -
b11111111111111111111111001001110 +
b00000000000000001000110110010000 ,
b00000000000000000000000010001110 /
#480
0"
b00000000000000000000000010000100 $
#485
1"
b00000000000000001000010000000000 -
b00000000000000000000001100101110 +
b00000000000000001000101111011110 ,
b00000000000000000000000010001101 /
#490
0"
b00000000000000000000000010100001 $
#495
1"
b00000000000000001010000100000000 -
b11111111111111111111111100000100 +
b00000000000000001000111100001100 ,
b00000000000000000000000010001011 /
#500
0"
b00000000000000000000000010010011 $
#505
1"
b00000000000000001001001100000000 -
b00000000000000000000001000111110 +
b00000000000000001000111000010000 ,
b00000000000000000000000010001111 /
#510
0"
b00000000000000000000000010100110 $
#515
1"
b00000000000000001010011000000000 -
b00000000000000000000000010011110 +
b00000000000000001001000001001110 ,
b00000000000000000000000010001110 /
#520
0"
b00000000000000000000000010010111 $
#525
1"
b00000000000000001001011100000000 -
b00000000000000000000001010110110 +
b00000000000000001001000011101100 ,
b00000000000000000000000010010000 /
#530
0"
b00000000000000000000000010100101 $
#535
1"
b00000000000000001010010100000000 -
b00000000000000000000000011000010 +
b00000000000000001001001110100010 ,
#540
0"
b00000000000000000000000010100110 $
#545
1"
b00000000000000001010011000000000 -
b00000000000000000000001000101011 +
b00000000000000001001010001100100 ,
b00000000000000000000000010010011 /
#550
0"
b00000000000000000000000010100001 $
#555
1"
b00000000000000001010000100000000 -
b00000000000000000000001000110011 +
b00000000000000001001011010001111 ,
b00000000000000000000000010010100 /
#560
0"
b00000000000000000000000010100111 $
#565
1"
b00000000000000001010011100000000 -
b00000000000000000000000101001110 +
b00000000000000001001100011000010 ,
b00000000000000000000000010010110 /
#570
0"
b00000000000000000000000010010010 $
#575
1"
b00000000000000001001001000000000 -
b00000000000000000000000111000111 +
b00000000000000001001101000010000 ,
b00000000000000000000000010011000 /
#580
0"
b00000000000000000000000010010001 $
#585
1"
b00000000000000001001000100000000 -
b11111111111111111111111011111110 +
b00000000000000001001101111010111 ,
b00000000000000000000000010011010 /
#590
0"
b00000000000000000000000010001011 $
#595
1"
b00000000000000001000101100000000 -
b11111111111111111111111010100101 +
b00000000000000001001101011010101 ,
b00000000000000000000000010011011 /
#600
0"
b00000000000000000000000010001111 $
#605
1"
b00000000000000001000111100000000 -
b11111111111111111111111000000101 +
b00000000000000001001100101111010 ,
b00000000000000000000000010011010 /
#610
0"
b00000000000000000000000010000101 $
#615
1"
b00000000000000001000010100000000 -
b11111111111111111111111010110000 +
b00000000000000001001011101111111 ,
b00000000000000000000000010011001 /
#620
0"
b00000000000000000000000010100001 $
#625
1"
b00000000000000001010000100000000 -
b11111111111111111111110110110000 +
b00000000000000001001011000101111 ,
b00000000000000000000000010010111 /
#630
0"
b00000000000000000000000010011011 $
#635
1"
b00000000000000001001101100000000 -
b00000000000000000000000101011010 +
b00000000000000001001001111011111 ,
b00000000000000000000000010010110 /
#640
0"
b00000000000000000000000010000111 $
#645
1"
b00000000000000001000011100000000 -
b00000000000000000000000011100100 +
b00000000000000001001010100111001 ,
b00000000000000000000000010010011 /
#650
0"
b00000000000000000000000010011001 $
#655
1"
b00000000000000001001100100000000 -
b11111111111111111111111000111000 +
b00000000000000001001011000011101 ,
b00000000000000000000000010010101 /
#660
0"
b00000000000000000000000010001000 $
#661
#665
1"
b00000000000000001000100000000000 -
b00000000000000000000000001011100 +
b00000000000000001001010001010101 ,
b00000000000000000000000010010110 /
#670
0"
1'
b00000000000000000000000010100010 $
#675
1"
b00000000000000001010001000000000 -
b11111111111111111111111001110101 +
b00000000000000001001010010110001 ,
b00000000000000000000000010010100 /
#680
0"
b00000000000000000000000010000001 $
#685
1"
b00000000000000001000000100000000 -
b00000000000000000000000110101001 +
b00000000000000001001001100100110 ,
#690
0"
b00000000000000000000000010010111 $
#695
1"
b00000000000000001001011100000000 -
b11111111111111111111110110111011 +
b00000000000000001001010011001111 ,
b00000000000000000000000010010011 /
#700
0"
b00000000000000000000000010010010 $
#705
1"
b00000000000000001001001000000000 -
b00000000000000000000000001000110 +
b00000000000000001001001010001010 ,
b00000000000000000000000010010100 /
#710
0"
b00000000000000000000000010010101 $
#715
1"
b00000000000000001001010100000000 -
b11111111111111111111111111101110 +
b00000000000000001001001011010000 ,
b00000000000000000000000010010010 /
#720
0"
b00000000000000000000000010001111 $
#725
1"
b00000000000000001000111100000000 -
b00000000000000000000000001000110 +
b00000000000000001001001010111110 ,
#730
0"
b00000000000000000000000010010100 $
#735
1"
b00000000000000001001010000000000 -
b11111111111111111111111110001000 +
b00000000000000001001001100000100 ,
#740
0"
b00000000000000000000000001111111 $
#745
1"
b00000000000000000111111100000000 -
b00000000000000000000000000011111 +
b00000000000000001001001010001100 ,
b00000000000000000000000010010011 /
#750
0"
b00000000000000000000000010010000 $
#755
1"
b00000000000000001001000000000000 -
b11111111111111111111110110001110 +
b00000000000000001001001010101011 ,
b00000000000000000000000010010010 /
#760
0"
b00000000000000000000000010000001 $
#765
1"
b00000000000000001000000100000000 -
b11111111111111111111111110101010 +
b00000000000000001001000000111001 ,
#770
0"
b00000000000000000000000010010011 $
#775
1"
b00000000000000001001001100000000 -
b11111111111111111111111000011000 +
b00000000000000001000111111100011 ,
b00000000000000000000000010010000 /
#780
0"
b00000000000000000000000010010111 $
#785
1"
b00000000000000001001011100000000 -
b00000000000000000000000001100011 +
b00000000000000001000110111111011 ,
b00000000000000000000000010001111 /
#790
0"
#795
1"
b00000000000000000000000100100000 +
b00000000000000001000111001011110 ,
b00000000000000000000000010001101 /
#800
0"
b00000000000000000000000010011000 $
#805
1"
b00000000000000001001100000000000 -
b00000000000000000000000100010100 +
b00000000000000001000111101111110 ,
b00000000000000000000000010001110 /
#810
0"
b00000000000000000000000010000111 $
#815
1"
b00000000000000001000011100000000 -
b00000000000000000000000100010000 +
b00000000000000001001000010010010 ,
b00000000000000000000000010001111 /
#820
0"
b00000000000000000000000010011110 $
#825
1"
b00000000000000001001111000000000 -
b11111111111111111111111011001101 +
b00000000000000001001000110100010 ,
b00000000000000000000000010010000 /
#830
0"
b00000000000000000000000010011011 $
#835
1"
b00000000000000001001101100000000 -
b00000000000000000000000110001011 +
b00000000000000001001000001101111 ,
b00000000000000000000000010010001 /
#840
0"
b00000000000000000000000010011100 $
#845
1"
b00000000000000001001110000000000 -
b00000000000000000000000101010010 +
b00000000000000001001000111111010 ,
b00000000000000000000000010010000 /
#850
0"
b00000000000000000000000010001010 $
#855
1"
b00000000000000001000101000000000 -
b00000000000000000000000101000000 +
b00000000000000001001001101001100 ,
b00000000000000000000000010010001 /
#860
0"
b00000000000000000000000001111000 $
#865
1"
b00000000000000000111100000000000 -
b11111111111111111111111011010110 +
b00000000000000001001010010001100 ,
b00000000000000000000000010010011 /
#870
0"
b00000000000000000000000001111010 $
#875
1"
b00000000000000000111101000000000 -
b11111111111111111111110001101110 +
b00000000000000001001001101100010 ,
b00000000000000000000000010010100 /
#880
0"
b00000000000000000000000001111000 $
#885
1"
b00000000000000000111100000000000 -
b11111111111111111111110011010011 +
b00000000000000001000111111010000 ,
b00000000000000000000000010010011 /
#890
0"
b00000000000000000000000001111110 $
#895
1"
b00000000000000000111111000000000 -
b11111111111111111111110100000110 +
b00000000000000001000110010100011 ,
b00000000000000000000000010001111 /
#900
0"
b00000000000000000000000010000000 $
#905
1"
b00000000000000001000000000000000 -
b11111111111111111111111000101011 +
b00000000000000001000100110101001 ,
b00000000000000000000000010001100 /
#910
0"
b00000000000000000000000010011001 $
#915
1"
b00000000000000001001100100000000 -
b11111111111111111111111011001010 +
b00000000000000001000011111010100 ,
b00000000000000000000000010001001 /
#920
0"
b00000000000000000000000001111111 $
#925
1"
b00000000000000000111111100000000 -
b00000000000000000000001000100101 +
b00000000000000001000011010011110 ,
b00000000000000000000000010000111 /
#930
0"
b00000000000000000000000010001110 $
#935
1"
b00000000000000001000111000000000 -
b11111111111111111111111100001100 +
b00000000000000001000100011000011 ,
b00000000000000000000000010000110 /
#940
0"
b00000000000000000000000010000101 $
#945
1"
b00000000000000001000010100000000 -
b00000000000000000000000010100111 +
b00000000000000001000011111001111 ,
b00000000000000000000000010001000 /
#950
0"
b00000000000000000000000010000010 $
#955
1"
b00000000000000001000001000000000 -
b11111111111111111111111110100110 +
b00000000000000001000100001110110 ,
b00000000000000000000000010000111 /
#960
0"
b00000000000000000000000010001010 $
#965
1"
b00000000000000001000101000000000 -
b11111111111111111111111100110001 +
b00000000000000001000100000011100 ,
b00000000000000000000000010001000 /
#970
0"
b00000000000000000000000010010100 $
#975
1"
b00000000000000001001010000000000 -
b00000000000000000000000000111100 +
b00000000000000001000011101001101 ,
#980
0"
b00000000000000000000000010000001 $
#985
1"
b00000000000000001000000100000000 -
b00000000000000000000000110010110 +
b00000000000000001000011110001001 ,
b00000000000000000000000010000111 /
#990
0"
b00000000000000000000000010010010 $
#995
1"
b00000000000000001001001000000000 -
b11111111111111111111111100101110 +
b00000000000000001000100100011111 ,
#1000
0"
b00000000000000000000000010001111 $
#1005
1"
b00000000000000001000111100000000 -
b00000000000000000000000100011100 +
b00000000000000001000100001001101 ,
b00000000000000000000000010001001 /
#1010
0"
b00000000000000000000000001111100 $
#1015
1"
b00000000000000000111110000000000 -
b00000000000000000000000011010110 +
b00000000000000001000100101101001 ,
b00000000000000000000000010001000 /
#1020
0"
b00000000000000000000000001101111 $
#1025
1"
b00000000000000000110111100000000 -
b11111111111111111111111001010010 +
b00000000000000001000101000111111 ,
b00000000000000000000000010001001 /
#1030
0"
b00000000000000000000000001101001 $
#1035
1"
b00000000000000000110100100000000 -
b11111111111111111111110010011000 +
b00000000000000001000100010010001 ,
b00000000000000000000000010001010 /
#1040
0"
b00000000000000000000000010001010 $
#1045
1"
b00000000000000001000101000000000 -
b11111111111111111111110000001101 +
b00000000000000001000010100101001 ,
b00000000000000000000000010001000 /
#1050
0"
b00000000000000000000000010000111 $
#1055
1"
b00000000000000001000011100000000 -
b00000000000000000000000010011010 +
b00000000000000001000000100110110 ,
b00000000000000000000000010000101 /
#1060
0"
b00000000000000000000000001100101 $
#1065
1"
b00000000000000000110010100000000 -
b00000000000000000000000010111001 +
b00000000000000001000000111010000 ,
b00000000000000000000000010000001 /
#1070
0"
b00000000000000000000000001101000 $
#1075
1"
b00000000000000000110100000000000 -
b11111111111111111111110001100110 +
b00000000000000001000001010001001 ,
#1080
0"
b00000000000000000000000001101110 $
#1085
1"
b00000000000000000110111000000000 -
b11111111111111111111110010101110 +
b00000000000000000111111011101111 ,
b00000000000000000000000010000010 /
#1090
0"
b00000000000000000000000001100110 $
#1095
1"
b00000000000000000110011000000000 -
b11111111111111111111110111100010 +
b00000000000000000111101110011101 ,
b00000000000000000000000001111110 /
#1100
0"
b00000000000000000000000001100001 $
#1105
1"
b00000000000000000110000100000000 -
b11111111111111111111110101001100 +
b00000000000000000111100101111111 ,
b00000000000000000000000001111011 /
#1110
0"
b00000000000000000000000001111110 $
#1115
1"
b00000000000000000111111000000000 -
b11111111111111111111110011110000 +
b00000000000000000111011011001011 ,
b00000000000000000000000001111001 /
#1120
0"
b00000000000000000000000001111010 $
#1125
1"
b00000000000000000111101000000000 -
b00000000000000000000000011100110 +
b00000000000000000111001110111011 ,
b00000000000000000000000001110110 /
#1130
0"
b00000000000000000000000001101101 $
#1135
1"
b00000000000000000110110100000000 -
b00000000000000000000000011001000 +
b00000000000000000111010010100001 ,
b00000000000000000000000001110011 /
#1140
0"
b00000000000000000000000001110011 $
#1145
1"
b00000000000000000111001100000000 -
b11111111111111111111111100001011 +
b00000000000000000111010101101001 ,
b00000000000000000000000001110100 /
#1150
0"
b00000000000000000000000010000000 $
#1155
1"
b00000000000000001000000000000000 -
b11111111111111111111111110110010 +
b00000000000000000111010001110100 ,
b00000000000000000000000001110101 /
#1160
0"
b00000000000000000000000001111101 $
#1165
1"
b00000000000000000111110100000000 -
b00000000000000000000000101110001 +
b00000000000000000111010000100110 ,
b00000000000000000000000001110100 /
#1170
0"
b00000000000000000000000001110110 $
#1175
1"
b00000000000000000111011000000000 -
b00000000000000000000000100011011 +
b00000000000000000111010110010111 ,
#1180
0"
b00000000000000000000000010000000 $
#1185
1"
b00000000000000001000000000000000 -
b00000000000000000000000000001101 +
b00000000000000000111011010110010 ,
b00000000000000000000000001110101 /
#1190
0"
b00000000000000000000000001110110 $
#1195
1"
b00000000000000000111011000000000 -
b00000000000000000000000100101001 +
b00000000000000000111011010111111 ,
b00000000000000000000000001110110 /
#1200
0"
b00000000000000000000000001101010 $
#1205
1"
b00000000000000000110101000000000 -
b11111111111111111111111111101000 +
b00000000000000000111011111101000 ,
#1210
0"
b00000000000000000000000001111110 $
#1215
1"
b00000000000000000111111000000000 -
b11111111111111111111111001000011 +
b00000000000000000111011111010000 ,
b00000000000000000000000001110111 /
#1220
0"
b00000000000000000000000001101111 $
#1225
1"
b00000000000000000110111100000000 -
b00000000000000000000000011000110 +
b00000000000000000111011000010011 ,
#1230
0"
b00000000000000000000000001101001 $
#1235
1"
b00000000000000000110100100000000 -
b11111111111111111111111100011101 +
b00000000000000000111011011011001 ,
b00000000000000000000000001110110 /
#1240
0"
b00000000000000000000000001110010 $
#1245
1"
b00000000000000000111001000000000 -
b11111111111111111111111001000100 +
b00000000000000000111010111110110 ,
#1250
0"
b00000000000000000000000001101001 $
#1255
1"
b00000000000000000110100100000000 -
b11111111111111111111111110000001 +
b00000000000000000111010000111010 ,
b00000000000000000000000001110101 /
#1260
0"
#1265
1"
b11111111111111111111111010011000 +
b00000000000000000111001110111011 ,
b00000000000000000000000001110100 /
#1270
0"
b00000000000000000000000001110100 $
#1275
1"
b00000000000000000111010000000000 -
b11111111111111111111111010101000 +
b00000000000000000111001001010011 ,
b00000000000000000000000001110011 /
#1280
0"
b00000000000000000000000001111000 $
#1285
1"
b00000000000000000111100000000000 -
b00000000000000000000000000110101 +
b00000000000000000111000011111011 ,
b00000000000000000000000001110010 /
#1290
0"
b00000000000000000000000001101010 $
#1295
1"
b00000000000000000110101000000000 -
b00000000000000000000000011100000 +
b00000000000000000111000100110000 ,
b00000000000000000000000001110000 /
#1300
0"
b00000000000000000000000001101011 $
#1305
1"
b00000000000000000110101100000000 -
b11111111111111111111111100011010 +
b00000000000000000111001000010000 ,
b00000000000000000000000001110001 /
#1310
0"
b00000000000000000000000001110011 $
#1315
1"
b00000000000000000111001100000000 -
b11111111111111111111111100011110 +
b00000000000000000111000100101010 ,
b00000000000000000000000001110010 /
#1320
0"
b00000000000000000000000001001111 $
#1325
1"
b00000000000000000100111100000000 -
b00000000000000000000000000111010 +
b00000000000000000111000001001000 ,
b00000000000000000000000001110001 /
#1330
0"
b00000000000000000000000001110010 $
#1335
1"
b00000000000000000111001000000000 -
b11111111111111111111101111010111 +
b00000000000000000111000010000010 ,
b00000000000000000000000001110000 /
#1340
0"
b00000000000000000000000001011011 $
#1345
1"
b00000000000000000101101100000000 -
b00000000000000000000000000101111 +
b00000000000000000110110001011001 ,
#1350
0"
b00000000000000000000000001100011 $
#1355
1"
b00000000000000000110001100000000 -
b11111111111111111111110111010100 +
b00000000000000000110110010001000 ,
b00000000000000000000000001101100 /
#1360
0"
b00000000000000000000000001011000 $
#1365
1"
b00000000000000000101100000000000 -
b11111111111111111111111011001111 +
b00000000000000000110101001011100 ,
#1370
0"
b00000000000000000000000001101111 $
#1375
1"
b00000000000000000110111100000000 -
b11111111111111111111110110110100 +
b00000000000000000110100100101011 ,
b00000000000000000000000001101010 /
#1380
0"
#1385
1"
b00000000000000000000000010111010 +
b00000000000000000110011011011111 ,
b00000000000000000000000001101001 /
#1390
0"
b00000000000000000000000001100001 $
#1395
1"
b00000000000000000110000100000000 -
b00000000000000000000000100000100 +
b00000000000000000110011110011001 ,
b00000000000000000000000001100110 /
#1400
0"
b00000000000000000000000001001111 $
#1405
1"
b00000000000000000100111100000000 -
b11111111111111111111111100101100 +
b00000000000000000110100010011101 ,
b00000000000000000000000001100111 /
#1410
0"
b00000000000000000000000001101011 $
#1415
1"
b00000000000000000110101100000000 -
b11111111111111111111110011001100 +
b00000000000000000110011111001001 ,
b00000000000000000000000001101000 /
#1420
0"
b00000000000000000000000001011001 $
#1425
1"
b00000000000000000101100100000000 -
b00000000000000000000000001100110 +
b00000000000000000110010010010101 ,
b00000000000000000000000001100111 /
#1430
0"
b00000000000000000000000001100001 $
#1435
1"
b00000000000000000110000100000000 -
b11111111111111111111111010001101 +
b00000000000000000110010011111011 ,
b00000000000000000000000001100100 /
#1440
0"
b00000000000000000000000001100101 $
#1445
1"
b00000000000000000110010100000000 -
b11111111111111111111111110000000 +
b00000000000000000110001110001000 ,
#1450
0"
b00000000000000000000000001101001 $
#1455
1"
b00000000000000000110100100000000 -
b00000000000000000000000000101111 +
b00000000000000000110001100001000 ,
b00000000000000000000000001100011 /
#1460
0"
b00000000000000000000000001010110 $
#1465
1"
b00000000000000000101011000000000 -
b00000000000000000000000010111111 +
b00000000000000000110001100110111 ,
#1470
0"
b00000000000000000000000001100010 $
#1475
1"
b00000000000000000110001000000000 -
b11111111111111111111111001011001 +
b00000000000000000110001111110110 ,
#1480
0"
b00000000000000000000000001001110 $
#1485
1"
b00000000000000000100111000000000 -
b11111111111111111111111111000001 +
b00000000000000000110001001001111 ,
#1490
0"
b00000000000000000000000001010000 $
#1495
1"
b00000000000000000101000000000000 -
b11111111111111111111110101110110 +
b00000000000000000110001000010000 ,
b00000000000000000000000001100010 /
#1500
0"
b00000000000000000000000001001000 $
#1505
1"
b00000000000000000100100000000000 -
b11111111111111111111110110111110 +
b00000000000000000101111110000110 ,
#1510
0"
b00000000000000000000000001101101 $
#1515
1"
b00000000000000000110110100000000 -
b11111111111111111111110100001111 +
b00000000000000000101110101000100 ,
b00000000000000000000000001011111 /
#1520
0"
b00000000000000000000000001100100 $
#1525
1"
b00000000000000000110010000000000 -
b00000000000000000000000111110111 +
b00000000000000000101101001010011 ,
b00000000000000000000000001011101 /
#1530
0"
b00000000000000000000000001010010 $
#1535
1"
b00000000000000000101001000000000 -
b00000000000000000000000100110101 +
b00000000000000000101110001001010 ,
b00000000000000000000000001011010 /
#1540
0"
b00000000000000000000000001100110 $
#1545
1"
b00000000000000000110011000000000 -
b11111111111111111111111010110110 +
b00000000000000000101110101111111 ,
b00000000000000000000000001011100 /
#1550
0"
b00000000000000000000000001001011 $
#1555
1"
b00000000000000000100101100000000 -
b00000000000000000000000100010000 +
b00000000000000000101110000110101 ,
b00000000000000000000000001011101 /
#1560
0"
b00000000000000000000000001011001 $
#1565
1"
b00000000000000000101100100000000 -
b11111111111111111111110111011001 +
b00000000000000000101110101000101 ,
b00000000000000000000000001011100 /
#1570
0"
b00000000000000000000000001001000 $
#1575
1"
b00000000000000000100100000000000 -
b11111111111111111111111101110111 +
b00000000000000000101101100011110 ,
b00000000000000000000000001011101 /
#1580
0"
b00000000000000000000000001001001 $
#1585
1"
b00000000000000000100100100000000 -
b11111111111111111111110110011100 +
b00000000000000000101101010010101 ,
b00000000000000000000000001011011 /
#1590
0"
b00000000000000000000000001000110 $
#1595
1"
b00000000000000000100011000000000 -
b11111111111111111111110111001101 +
b00000000000000000101100000110001 ,
b00000000000000000000000001011010 /
#1600
0"
b00000000000000000000000001100000 $
#1605
1"
b00000000000000000110000000000000 -
b11111111111111111111110110111001 +
b00000000000000000101010111111110 ,
b00000000000000000000000001011000 /
#1610
0"
b00000000000000000000000001011010 $
#1615
1"
b00000000000000000101101000000000 -
b00000000000000000000000101000000 +
b00000000000000000101001110110111 ,
b00000000000000000000000001010101 /
#1620
0"
b00000000000000000000000001100101 $
#1625
1"
b00000000000000000110010100000000 -
b00000000000000000000000011001001 +
b00000000000000000101010011110111 ,
b00000000000000000000000001010011 /
#1630
0"
b00000000000000000000000001100001 $
#1635
1"
b00000000000000000110000100000000 -
b00000000000000000000001000000001 +
b00000000000000000101010111000000 ,
b00000000000000000000000001010100 /
#1640
0"
b00000000000000000000000001010000 $
#1645
1"
b00000000000000000101000000000000 -
b00000000000000000000000101101000 +
b00000000000000000101011111000001 ,
b00000000000000000000000001010101 /
#1650
0"
b00000000000000000000000001101101 $
#1655
1"
b00000000000000000110110100000000 -
b11111111111111111111111100000111 +
b00000000000000000101100100101001 ,
b00000000000000000000000001010111 /
#1660
0"
b00000000000000000000000001001011 $
#1665
1"
b00000000000000000100101100000000 -
b00000000000000000000001001111010 +
b00000000000000000101100000110000 ,
b00000000000000000000000001011001 /
#1670
0"
b00000000000000000000000001001010 $
#1675
1"
b00000000000000000100101000000000 -
b11111111111111111111111001011010 +
b00000000000000000101101010101010 ,
b00000000000000000000000001011000 /
#1680
0"
b00000000000000000000000001011000 $
#1685
1"
b00000000000000000101100000000000 -
b11111111111111111111110111101010 +
b00000000000000000101100100000100 ,
b00000000000000000000000001011010 /
#1690
0"
b00000000000000000000000001010000 $
#1695
1"
b00000000000000000101000000000000 -
b11111111111111111111111111011111 +
b00000000000000000101011011101110 ,
b00000000000000000000000001011001 /
#1700
0"
b00000000000000000000000001010001 $
#1705
1"
b00000000000000000101000100000000 -
b11111111111111111111111100100010 +
b00000000000000000101011011001101 ,
b00000000000000000000000001010110 /
#1710
0"
b00000000000000000000000001010101 $
#1715
1"
b00000000000000000101010100000000 -
b11111111111111111111111101000110 +
b00000000000000000101010111101111 ,
#1720
0"
b00000000000000000000000001100011 $
#1725
1"
b00000000000000000110001100000000 -
b11111111111111111111111111100010 +
b00000000000000000101010100110101 ,
b00000000000000000000000001010101 /
#1730
0"
b00000000000000000000000001110000 $
