out/testbench/my_rc_tb.vcd
$date
    Wed Dec  5 18:53:27 2018
$end
$version
    MyHDL 0.10
$end
$timescale
    1ns
$end

$scope module my_rc_tb $end
$var reg 1 ! reset $end
$var reg 1 " clk $end
$var reg 1 # axis_raw_tvalid $end
$var reg 32 $ axis_raw_tdata $end
$var reg 1 % axis_raw_tlast $end
$var reg 1 & axis_raw_tready $end
$var reg 1 ' axis_sum_tready $end
$var reg 1 ( axis_sum_tlast $end
$scope module clk_stim0 $end
$var reg 1 " clk $end
$upscope $end
$scope module my_rc $end
$var reg 32 ) vin $end
$var reg 1 ! reset $end
$var reg 1 " clk $end
$var real 1 * state $end
$var reg 32 + d $end
$var reg 32 , Vout $end
$var reg 32 - Vin $end
$var reg 1 . axis_m_sum_tvalid $end
$var reg 1 ( axis_m_sum_tlast $end
$var reg 1 & axis_s_raw_tready $end
$var reg 1 # axis_s_raw_tvalid $end
$var reg 32 $ axis_s_raw_tdata $end
$var reg 32 / axis_m_sum_tdata $end
$var reg 1 % axis_s_raw_tlast $end
$var reg 1 ' axis_m_sum_tready $end
$upscope $end
$upscope $end

$enddefinitions $end
$dumpvars
0!
0"
0#
b00000000000000000000000000000000 $
0%
0&
0'
0(
b00000000000000000000000000000000 )
sSTART *
b00000000000000000000000000000000 +
b00000000000000000000000000000000 ,
b00000000000000000000000000000000 -
0.
b00000000000000000000000000000000 /
$end
#5
1"
#10
0"
#15
1"
#20
0"
#25
1"
#30
0"
#35
1"
#40
0"
#45
1"
#50
0"
#54
#55
1"
#60
0"
1!
#65
1"
sCALCULATE *
#70
0"
1#
b00000000000000000000000001101010 $
#75
1"
1.
1&
b00000000000000000110101000000000 -
#80
0"
#85
1"
b00000000000000000000110101000000 +
#90
0"
b00000000000000000000000001110110 $
#95
1"
b00000000000000000111011000000000 -
b00000000000000000000110101000000 ,
#100
0"
b00000000000000000000000010010111 $
#105
1"
b00000000000000001001011100000000 -
b00000000000000000000110100011000 +
b00000000000000000001101010000000 ,
b00000000000000000000000000001101 /
#110
0"
b00000000000000000000000010010011 $
#115
1"
b00000000000000001001001100000000 -
b00000000000000000000111110010000 +
b00000000000000000010011110011000 ,
b00000000000000000000000000011010 /
#120
0"
b00000000000000000000000010010101 $
#125
1"
b00000000000000001001010100000000 -
b00000000000000000000110101101101 +
b00000000000000000011011100101000 ,
b00000000000000000000000000100111 /
#130
0"
b00000000000000000000000010010001 $
#135
1"
b00000000000000001001000100000000 -
b00000000000000000000101110111011 +
b00000000000000000100010010010101 ,
b00000000000000000000000000110111 /
#140
0"
b00000000000000000000000010011011 $
#145
1"
b00000000000000001001101100000000 -
b00000000000000000000100110001101 +
b00000000000000000101000001010000 ,
b00000000000000000000000001000100 /
#150
0"
b00000000000000000000000010000001 $
#155
1"
b00000000000000001000000100000000 -
b00000000000000000000100101010110 +
b00000000000000000101100111011101 ,
b00000000000000000000000001010000 /
#160
0"
b00000000000000000000000010100110 $
#165
1"
b00000000000000001010011000000000 -
b00000000000000000000010011100100 +
b00000000000000000110001100110011 ,
b00000000000000000000000001011001 /
#170
0"
b00000000000000000000000010011100 $
#175
1"
b00000000000000001001110000000000 -
b00000000000000000000100001011001 +
b00000000000000000110100000010111 ,
b00000000000000000000000001100011 /
#180
0"
b00000000000000000000000010001101 $
#185
1"
b00000000000000001000110100000000 -
b00000000000000000000011001111101 +
b00000000000000000111000001110000 ,
b00000000000000000000000001101000 /
#190
0"
b00000000000000000000000010011001 $
#195
1"
b00000000000000001001100100000000 -
b00000000000000000000001110010010 +
b00000000000000000111011011101101 ,
b00000000000000000000000001110000 /
#200
0"
b00000000000000000000000010000010 $
#205
1"
b00000000000000001000001000000000 -
b00000000000000000000010001000010 +
b00000000000000000111101001111111 ,
b00000000000000000000000001110110 /
#210
0"
b00000000000000000000000010010110 $
#215
1"
b00000000000000001001011000000000 -
b00000000000000000000000011110000 +
b00000000000000000111111011000001 ,
b00000000000000000000000001111010 /
#220
0"
b00000000000000000000000010100000 $
#225
1"
b00000000000000001010000000000000 -
b00000000000000000000001011100111 +
b00000000000000000111111110110001 ,
b00000000000000000000000001111110 /
#230
0"
b00000000000000000000000010001001 $
#235
1"
b00000000000000001000100100000000 -
b00000000000000000000010000001001 +
b00000000000000001000001010011000 ,
b00000000000000000000000001111111 /
#240
0"
b00000000000000000000000010010110 $
#245
1"
b00000000000000001001011000000000 -
b00000000000000000000000011001101 +
b00000000000000001000011010100001 ,
b00000000000000000000000010000010 /
#250
0"
b00000000000000000000000010000101 $
#255
1"
b00000000000000001000010100000000 -
b00000000000000000000000111101011 +
b00000000000000001000011101101110 ,
b00000000000000000000000010000110 /
#260
0"
b00000000000000000000000001101001 $
#265
1"
b00000000000000000110100100000000 -
b11111111111111111111111110110010 +
b00000000000000001000100101011001 ,
b00000000000000000000000010000111 /
#270
0"
b00000000000000000000000001101010 $
#275
1"
b00000000000000000110101000000000 -
b11111111111111111111101111110100 +
b00000000000000001000100100001011 ,
b00000000000000000000000010001001 /
#280
0"
b00000000000000000000000010000011 $
#285
1"
b00000000000000001000001100000000 -
b11111111111111111111110000011110 +
b00000000000000001000010011111111 ,
#290
0"
b00000000000000000000000001100101 $
#295
1"
b00000000000000000110010100000000 -
b11111111111111111111111111000000 +
b00000000000000001000000100011101 ,
b00000000000000000000000010000100 /
#300
0"
b00000000000000000000000001110000 $
#305
1"
b00000000000000000111000000000000 -
b11111111111111111111110001111100 +
b00000000000000001000000011011101 ,
b00000000000000000000000010000001 /
#310
0"
b00000000000000000000000001101100 $
#315
1"
b00000000000000000110110000000000 -
b11111111111111111111110111100100 +
b00000000000000000111110101011001 ,
b00000000000000000000000010000000 /
#320
0"
b00000000000000000000000001010011 $
#325
1"
b00000000000000000101001100000000 -
b11111111111111111111110111010100 +
b00000000000000000111101100111101 ,
b00000000000000000000000001111101 /
#330
0"
b00000000000000000000000001100100 $
#335
1"
b00000000000000000110010000000000 -
b11111111111111111111101011111000 +
b00000000000000000111100100010001 ,
b00000000000000000000000001111011 /
#340
0"
b00000000000000000000000001100110 $
#345
1"
b00000000000000000110011000000000 -
b11111111111111111111110101011101 +
b00000000000000000111010000001001 ,
b00000000000000000000000001111001 /
#350
0"
b00000000000000000000000001001000 $
#355
1"
b00000000000000000100100000000000 -
b11111111111111111111111000111110 +
b00000000000000000111000101100110 ,
b00000000000000000000000001110100 /
#360
0"
b00000000000000000000000001000110 $
#365
1"
b00000000000000000100011000000000 -
b11111111111111111111101011010011 +
b00000000000000000110111110100100 ,
b00000000000000000000000001110001 /
#370
0"
b00000000000000000000000001101001 $
#375
1"
b00000000000000000110100100000000 -
b11111111111111111111101011001011 +
b00000000000000000110101001110111 ,
b00000000000000000000000001101111 /
#380
0"
b00000000000000000000000001001110 $
#385
1"
b00000000000000000100111000000000 -
b11111111111111111111111111010001 +
b00000000000000000110010101000010 ,
b00000000000000000000000001101010 /
#390
0"
b00000000000000000000000001011011 $
#395
1"
b00000000000000000101101100000000 -
b11111111111111111111110100010111 +
b00000000000000000110010100010011 ,
b00000000000000000000000001100101 /
#400
0"
b00000000000000000000000001101100 $
#405
1"
b00000000000000000110110000000000 -
b11111111111111111111111010111101 +
b00000000000000000110001000101010 ,
#410
0"
b00000000000000000000000001010011 $
#415
1"
b00000000000000000101001100000000 -
b00000000000000000000000100111010 +
b00000000000000000110000011100111 ,
b00000000000000000000000001100010 /
#420
0"
b00000000000000000000000001011101 $
#425
1"
b00000000000000000101110100000000 -
b11111111111111111111111001000011 +
b00000000000000000110001000100001 ,
b00000000000000000000000001100000 /
#430
0"
b00000000000000000000000001010111 $
#435
1"
b00000000000000000101011100000000 -
b11111111111111111111111101011011 +
b00000000000000000110000001100100 ,
b00000000000000000000000001100010 /
#440
0"
b00000000000000000000000001011001 $
#445
1"
b00000000000000000101100100000000 -
b11111111111111111111111011010011 +
b00000000000000000101111110111111 ,
b00000000000000000000000001100000 /
#450
0"
b00000000000000000000000001100001 $
#455
1"
b00000000000000000110000100000000 -
b11111111111111111111111100101000 +
b00000000000000000101111010010010 ,
b00000000000000000000000001011111 /
#460
0"
b00000000000000000000000001110010 $
#465
1"
b00000000000000000111001000000000 -
b00000000000000000000000001001101 +
b00000000000000000101110110111010 ,
b00000000000000000000000001011110 /
#470
0"
b00000000000000000000000001111110 $
#475
1"
b00000000000000000111111000000000 -
b00000000000000000000001010001000 +
b00000000000000000101111000000111 ,
b00000000000000000000000001011101 /
#480
0"
b00000000000000000000000010001000 $
#485
1"
b00000000000000001000100000000000 -
b00000000000000000000001111111111 +
b00000000000000000110000010001111 ,
b00000000000000000000000001011110 /
#490
0"
b00000000000000000000000001110010 $
#495
1"
b00000000000000000111001000000000 -
b00000000000000000000010011101110 +
b00000000000000000110010010001110 ,
b00000000000000000000000001100000 /
#500
0"
b00000000000000000000000010010010 $
#505
1"
b00000000000000001001001000000000 -
b00000000000000000000000110101110 +
b00000000000000000110100101111100 ,
b00000000000000000000000001100100 /
#510
0"
b00000000000000000000000010001100 $
#515
1"
b00000000000000001000110000000000 -
b00000000000000000000010100010000 +
b00000000000000000110101100101010 ,
b00000000000000000000000001101001 /
#520
0"
b00000000000000000000000010001010 $
#525
1"
b00000000000000001000101000000000 -
b00000000000000000000010000011010 +
b00000000000000000111000000111010 ,
b00000000000000000000000001101011 /
#530
0"
b00000000000000000000000001111111 $
#535
1"
b00000000000000000111111100000000 -
b00000000000000000000001100111000 +
b00000000000000000111010001010100 ,
b00000000000000000000000001110000 /
#540
0"
#545
1"
b00000000000000000000000101010101 +
b00000000000000000111011110001100 ,
b00000000000000000000000001110100 /
#550
0"
b00000000000000000000000010010010 $
#555
1"
b00000000000000001001001000000000 -
b00000000000000000000000011101110 +
b00000000000000000111100011100001 ,
b00000000000000000000000001110111 /
#560
0"
b00000000000000000000000010000111 $
#565
1"
b00000000000000001000011100000000 -
b00000000000000000000001100100011 +
b00000000000000000111100111001111 ,
b00000000000000000000000001111000 /
#570
0"
b00000000000000000000000010001010 $
#575
1"
b00000000000000001000101000000000 -
b00000000000000000000000110100110 +
b00000000000000000111110011110010 ,
b00000000000000000000000001111001 /
#580
0"
b00000000000000000000000010010100 $
#585
1"
b00000000000000001001010000000000 -
b00000000000000000000000110100001 +
b00000000000000000111111010011000 ,
b00000000000000000000000001111100 /
#590
0"
#595
1"
b00000000000000000000001010101101 +
b00000000000000001000000000111001 ,
b00000000000000000000000001111110 /
#600
0"
b00000000000000000000000010001001 $
#605
1"
b00000000000000001000100100000000 -
b00000000000000000000001001111000 +
b00000000000000001000001011100110 ,
b00000000000000000000000010000000 /
#610
0"
b00000000000000000000000001111101 $
#615
1"
b00000000000000000111110100000000 -
b00000000000000000000000011000011 +
b00000000000000001000010101011110 ,
b00000000000000000000000010000010 /
#620
0"
b00000000000000000000000010100001 $
#625
1"
b00000000000000001010000100000000 -
b11111111111111111111111011110100 +
b00000000000000001000011000100001 ,
b00000000000000000000000010000101 /
#630
0"
b00000000000000000000000010000101 $
#635
1"
b00000000000000001000010100000000 -
b00000000000000000000001101011011 +
b00000000000000001000010100010101 ,
b00000000000000000000000010000110 /
#640
0"
b00000000000000000000000001111011 $
#645
1"
b00000000000000000111101100000000 -
b11111111111111111111111111111101 +
b00000000000000001000100001110000 ,
b00000000000000000000000010000101 /
#650
0"
b00000000000000000000000001110101 $
#655
1"
b00000000000000000111010100000000 -
b11111111111111111111111001010010 +
b00000000000000001000100001101101 ,
b00000000000000000000000010001000 /
#660
0"
b00000000000000000000000001110100 $
#661
#665
1"
b00000000000000000111010000000000 -
b11111111111111111111110110010010 +
b00000000000000001000011010111111 ,
#670
0"
1'
b00000000000000000000000010000111 $
#675
1"
b00000000000000001000011100000000 -
b11111111111111111111110110101000 +
b00000000000000001000010001010001 ,
b00000000000000000000000010000110 /
#680
0"
b00000000000000000000000010000100 $
#685
1"
b00000000000000001000010000000000 -
b00000000000000000000000001010101 +
b00000000000000001000000111111001 ,
b00000000000000000000000010000100 /
#690
0"
b00000000000000000000000001111100 $
#695
1"
b00000000000000000111110000000000 -
b00000000000000000000000001000000 +
b00000000000000001000001001001110 ,
b00000000000000000000000010000001 /
#700
0"
b00000000000000000000000001011010 $
#705
1"
b00000000000000000101101000000000 -
b11111111111111111111111100110110 +
b00000000000000001000001010001110 ,
b00000000000000000000000010000010 /
#710
0"
b00000000000000000000000001100001 $
#715
1"
b00000000000000000110000100000000 -
b11111111111111111111101011101110 +
b00000000000000001000000111000100 ,
#720
0"
b00000000000000000000000001011000 $
#725
1"
b00000000000000000101100000000000 -
b11111111111111111111101111100111 +
b00000000000000000111110010110010 ,
b00000000000000000000000010000001 /
#730
0"
b00000000000000000000000001100011 $
#735
1"
b00000000000000000110001100000000 -
b11111111111111111111101101101001 +
b00000000000000000111100010011001 ,
b00000000000000000000000001111100 /
#740
0"
b00000000000000000000000001101001 $
#745
1"
b00000000000000000110100100000000 -
b11111111111111111111110101001100 +
b00000000000000000111010000000010 ,
b00000000000000000000000001111000 /
#750
0"
b00000000000000000000000001011010 $
#755
1"
b00000000000000000101101000000000 -
b11111111111111111111111010011111 +
b00000000000000000111000101001110 ,
b00000000000000000000000001110100 /
#760
0"
b00000000000000000000000001101010 $
#765
1"
b00000000000000000110101000000000 -
b11111111111111111111110100010110 +
b00000000000000000110111111101101 ,
b00000000000000000000000001110001 /
#770
0"
b00000000000000000000000001001100 $
#775
1"
b00000000000000000100110000000000 -
b11111111111111111111111101000010 +
b00000000000000000110110100000011 ,
b00000000000000000000000001101111 /
#780
0"
b00000000000000000000000001011010 $
#785
1"
b00000000000000000101101000000000 -
b11111111111111111111101111011111 +
b00000000000000000110110001000101 ,
b00000000000000000000000001101101 /
#790
0"
b00000000000000000000000001101001 $
#795
1"
b00000000000000000110100100000000 -
b11111111111111111111110110110111 +
b00000000000000000110100000100100 ,
b00000000000000000000000001101100 /
#800
0"
b00000000000000000000000001101100 $
#805
1"
b00000000000000000110110000000000 -
b00000000000000000000000000011011 +
b00000000000000000110010111011011 ,
b00000000000000000000000001101000 /
#810
0"
b00000000000000000000000001100011 $
#815
1"
b00000000000000000110001100000000 -
b00000000000000000000000011000100 +
b00000000000000000110010111110110 ,
b00000000000000000000000001100101 /
#820
0"
b00000000000000000000000001100110 $
#825
1"
b00000000000000000110011000000000 -
b11111111111111111111111110100001 +
b00000000000000000110011010111010 ,
#830
0"
b00000000000000000000000001101001 $
#835
1"
b00000000000000000110100100000000 -
b11111111111111111111111111101000 +
b00000000000000000110011001011011 ,
b00000000000000000000000001100110 /
#840
0"
b00000000000000000000000001100011 $
#845
1"
b00000000000000000110001100000000 -
b00000000000000000000000001010100 +
b00000000000000000110011001000011 ,
#850
0"
b00000000000000000000000001011011 $
#855
1"
b00000000000000000101101100000000 -
b11111111111111111111111110010111 +
b00000000000000000110011010010111 ,
#860
0"
b00000000000000000000000001110100 $
#865
1"
b00000000000000000111010000000000 -
b11111111111111111111111010001101 +
b00000000000000000110011000101110 ,
#870
0"
b00000000000000000000000001101001 $
#875
1"
b00000000000000000110100100000000 -
b00000000000000000000000110111010 +
b00000000000000000110010010111011 ,
#880
0"
b00000000000000000000000001110011 $
#885
1"
b00000000000000000111001100000000 -
b00000000000000000000000010001000 +
b00000000000000000110011001110101 ,
b00000000000000000000000001100100 /
#890
0"
#895
1"
b00000000000000000000000110010001 +
b00000000000000000110011011111101 ,
b00000000000000000000000001100110 /
#900
0"
b00000000000000000000000001110101 $
#905
1"
b00000000000000000111010100000000 -
b00000000000000000000000110000000 +
b00000000000000000110100010001110 ,
#910
0"
b00000000000000000000000010010010 $
#915
1"
b00000000000000001001001000000000 -
b00000000000000000000000110001110 +
b00000000000000000110101000001110 ,
b00000000000000000000000001101000 /
#920
0"
b00000000000000000000000010011100 $
#925
1"
b00000000000000001001110000000000 -
b00000000000000000000010011111110 +
b00000000000000000110101110011100 ,
b00000000000000000000000001101010 /
#930
0"
b00000000000000000000000010100011 $
#935
1"
b00000000000000001010001100000000 -
b00000000000000000000011000001100 +
b00000000000000000111000010011010 ,
b00000000000000000000000001101011 /
#940
0"
b00000000000000000000000010000111 $
#945
1"
b00000000000000001000011100000000 -
b00000000000000000000011001001100 +
b00000000000000000111011010100110 ,
b00000000000000000000000001110000 /
#950
0"
b00000000000000000000000010011001 $
#955
1"
b00000000000000001001100100000000 -
b00000000000000000000001000001011 +
b00000000000000000111110011110010 ,
b00000000000000000000000001110110 /
#960
0"
b00000000000000000000000010001100 $
#965
1"
b00000000000000001000110000000000 -
b00000000000000000000001110000001 +
b00000000000000000111111011111101 ,
b00000000000000000000000001111100 /
#970
0"
b00000000000000000000000010010001 $
#975
1"
b00000000000000001001000100000000 -
b00000000000000000000000110100000 +
b00000000000000001000001001111110 ,
b00000000000000000000000001111110 /
#980
0"
b00000000000000000000000010001010 $
#985
1"
b00000000000000001000101000000000 -
b00000000000000000000000111010000 +
b00000000000000001000010000011110 ,
b00000000000000000000000010000010 /
#990
0"
b00000000000000000000000010010100 $
#995
1"
b00000000000000001001010000000000 -
b00000000000000000000000010111100 +
b00000000000000001000010111101110 ,
b00000000000000000000000010000100 /
#1000
0"
b00000000000000000000000010000110 $
#1005
1"
b00000000000000001000011000000000 -
b00000000000000000000000111000010 +
b00000000000000001000011010101010 ,
b00000000000000000000000010000101 /
#1010
0"
b00000000000000000000000010000011 $
#1015
1"
b00000000000000001000001100000000 -
b11111111111111111111111111101010 +
b00000000000000001000100001101100 ,
b00000000000000000000000010000110 /
#1020
0"
#1025
1"
b11111111111111111111111101010010 +
b00000000000000001000100001010110 ,
b00000000000000000000000010001000 /
#1030
0"
b00000000000000000000000010001000 $
#1035
1"
b00000000000000001000100000000000 -
b11111111111111111111111101010101 +
b00000000000000001000011110101000 ,
#1040
0"
b00000000000000000000000001111110 $
#1045
1"
b00000000000000000111111000000000 -
b00000000000000000000000000001011 +
b00000000000000001000011011111101 ,
b00000000000000000000000010000111 /
#1050
0"
b00000000000000000000000010010000 $
#1055
1"
b00000000000000001001000000000000 -
b11111111111111111111111011100000 +
b00000000000000001000011100001000 ,
b00000000000000000000000010000110 /
#1060
0"
b00000000000000000000000001111111 $
#1065
1"
b00000000000000000111111100000000 -
b00000000000000000000000100011111 +
b00000000000000001000010111101000 ,
b00000000000000000000000010000111 /
#1070
0"
b00000000000000000000000000000000 $
1%
#1075
1"
b00000000000000000000000000000000 -
b11111111111111111111111100100011 +
b00000000000000001000011100000111 ,
b00000000000000000000000010000101 /
sFINISH *
#1080
0"
0#
#1085
1"
0&
1(
b11111111111111111111111111111111 /
sSTART *
#1090
0"
#1095
1"
b00000000000000000000000000000000 ,
b00000000000000000000000000000000 +
sCALCULATE *
#1100
0"
#1105
1"
0(
1&
