out/testbench/my_rc_tb.1544023218.3811936.vcd
$date
    Wed Dec  5 16:20:18 2018
$end
$version
    MyHDL 0.10
$end
$timescale
    1ns
$end

$scope module my_rc_tb $end
$var reg 1 ! reset $end
$var reg 1 " clk $end
$var reg 1 # axis_raw_tvalid $end
$var reg 32 $ axis_raw_tdata $end
$var reg 1 % axis_raw_tlast $end
$var reg 1 & axis_raw_tready $end
$var reg 1 ' axis_sum_tready $end
$var reg 1 ( axis_sum_tlast $end
$scope module clk_stim0 $end
$var reg 1 " clk $end
$upscope $end
$scope module my_rc $end
$var reg 32 ) vin $end
$var reg 1 ! reset $end
$var reg 1 " clk $end
$var real 1 * state $end
$var reg 32 + d $end
$var reg 32 , Vout $end
$var reg 32 - Vin $end
$var reg 1 . axis_m_sum_tvalid $end
$var reg 1 ( axis_m_sum_tlast $end
$var reg 1 & axis_s_raw_tready $end
$var reg 1 # axis_s_raw_tvalid $end
$var reg 32 $ axis_s_raw_tdata $end
$var reg 32 / axis_m_sum_tdata $end
$var reg 1 % axis_s_raw_tlast $end
$var reg 1 ' axis_m_sum_tready $end
$upscope $end
$upscope $end

$enddefinitions $end
$dumpvars
0!
0"
0#
b00000000000000000000000000000000 $
0%
0&
0'
0(
b00000000000000000000000000000000 )
sSTART *
b00000000000000000000000000000000 +
b00000000000000000000000000000000 ,
b00000000000000000000000000000000 -
0.
b00000000000000000000000000000000 /
$end
#5
1"
#10
0"
#15
1"
#20
0"
#25
1"
#30
0"
#35
1"
#40
0"
#45
1"
#50
0"
#54
#55
1"
#60
0"
1!
#65
1"
sCALCULATE *
#70
0"
1#
b00000000000000000000000010000001 $
#75
1"
1.
1&
b00000000000000001000000100000000 -
#80
0"
#85
1"
b00000000000000000001000000100000 +
#90
0"
b00000000000000000000000001110000 $
#95
1"
b00000000000000000111000000000000 -
b00000000000000000001000000100000 ,
#100
0"
b00000000000000000000000001111101 $
#105
1"
b00000000000000000111110100000000 -
b00000000000000000000101111111100 +
b00000000000000000010000001000000 ,
b00000000000000000000000000010000 /
#110
0"
b00000000000000000000000001111100 $
#115
1"
b00000000000000000111110000000000 -
b00000000000000000000101110011000 +
b00000000000000000010110000111100 ,
b00000000000000000000000000100000 /
#120
0"
b00000000000000000000000010001000 $
#125
1"
b00000000000000001000100000000000 -
b00000000000000000000100111111000 +
b00000000000000000011011111010100 ,
b00000000000000000000000000101100 /
#130
0"
b00000000000000000000000001101010 $
#135
1"
b00000000000000000110101000000000 -
b00000000000000000000101000000101 +
b00000000000000000100000111001100 ,
b00000000000000000000000000110111 /
#140
0"
b00000000000000000000000001101110 $
#145
1"
b00000000000000000110111000000000 -
b00000000000000000000010100000110 +
b00000000000000000100101111010001 ,
b00000000000000000000000001000001 /
#150
0"
b00000000000000000000000001110101 $
#155
1"
b00000000000000000111010100000000 -
b00000000000000000000010001000101 +
b00000000000000000101000011010111 ,
b00000000000000000000000001001011 /
#160
0"
b00000000000000000000000010001000 $
#165
1"
b00000000000000001000100000000000 -
b00000000000000000000010010000101 +
b00000000000000000101010100011100 ,
b00000000000000000000000001010000 /
#170
0"
b00000000000000000000000010000110 $
#175
1"
b00000000000000001000011000000000 -
b00000000000000000000011001011100 +
b00000000000000000101100110100001 ,
b00000000000000000000000001010101 /
#180
0"
b00000000000000000000000001111011 $
#185
1"
b00000000000000000111101100000000 -
b00000000000000000000010110001011 +
b00000000000000000101111111111101 ,
b00000000000000000000000001011001 /
#190
0"
b00000000000000000000000010000111 $
#195
1"
b00000000000000001000011100000000 -
b00000000000000000000001101100000 +
b00000000000000000110010110001000 ,
b00000000000000000000000001011111 /
#200
0"
b00000000000000000000000001111101 $
#205
1"
b00000000000000000111110100000000 -
b00000000000000000000010000101111 +
b00000000000000000110100011101000 ,
b00000000000000000000000001100101 /
#210
0"
b00000000000000000000000010000011 $
#215
1"
b00000000000000001000001100000000 -
b00000000000000000000001010000011 +
b00000000000000000110110100010111 ,
b00000000000000000000000001101000 /
#220
0"
b00000000000000000000000001111011 $
#225
1"
b00000000000000000111101100000000 -
b00000000000000000000001010111101 +
b00000000000000000110111110011010 ,
b00000000000000000000000001101101 /
#230
0"
b00000000000000000000000001111110 $
#235
1"
b00000000000000000111111000000000 -
b00000000000000000000000101101100 +
b00000000000000000111001001010111 ,
b00000000000000000000000001101111 /
#240
0"
b00000000000000000000000010010110 $
#245
1"
b00000000000000001001011000000000 -
b00000000000000000000000101110101 +
b00000000000000000111001111000011 ,
b00000000000000000000000001110010 /
#250
0"
b00000000000000000000000001111001 $
#255
1"
b00000000000000000111100100000000 -
b00000000000000000000010001000111 +
b00000000000000000111010100111000 ,
b00000000000000000000000001110011 /
#260
0"
b00000000000000000000000010010010 $
#265
1"
b00000000000000001001001000000000 -
b00000000000000000000000001111001 +
b00000000000000000111100101111111 ,
b00000000000000000000000001110101 /
#270
0"
b00000000000000000000000001110101 $
#275
1"
b00000000000000000111010100000000 -
b00000000000000000000001100010000 +
b00000000000000000111100111111000 ,
b00000000000000000000000001111001 /
#280
0"
b00000000000000000000000010010110 $
#285
1"
b00000000000000001001011000000000 -
b11111111111111111111111101100001 +
b00000000000000000111110100001000 ,
#290
0"
b00000000000000000000000001111011 $
#295
1"
b00000000000000000111101100000000 -
b00000000000000000000001100011111 +
b00000000000000000111110001101001 ,
b00000000000000000000000001111101 /
#300
0"
b00000000000000000000000010011001 $
#305
1"
b00000000000000001001100100000000 -
b11111111111111111111111111010010 +
b00000000000000000111111110001000 ,
b00000000000000000000000001111100 /
#310
0"
b00000000000000000000000010000111 $
#315
1"
b00000000000000001000011100000000 -
b00000000000000000000001100101111 +
b00000000000000000111111101011010 ,
b00000000000000000000000001111111 /
#320
0"
b00000000000000000000000010000011 $
#325
1"
b00000000000000001000001100000000 -
b00000000000000000000000011110100 +
b00000000000000001000001010001001 ,
#330
0"
b00000000000000000000000010011111 $
#335
1"
b00000000000000001001111100000000 -
b00000000000000000000000000001110 +
b00000000000000001000001101111101 ,
b00000000000000000000000010000010 /
#340
0"
b00000000000000000000000010011001 $
#345
1"
b00000000000000001001100100000000 -
b00000000000000000000001101110000 +
b00000000000000001000001110001011 ,
b00000000000000000000000010000011 /
#350
0"
b00000000000000000000000010010000 $
#355
1"
b00000000000000001001000000000000 -
b00000000000000000000001010101110 +
b00000000000000001000011011111011 ,
#360
0"
b00000000000000000000000010000011 $
#365
1"
b00000000000000001000001100000000 -
b00000000000000000000000100100000 +
b00000000000000001000100110101001 ,
b00000000000000000000000010000110 /
#370
0"
b00000000000000000000000010000101 $
#375
1"
b00000000000000001000010100000000 -
b11111111111111111111111100101010 +
b00000000000000001000101011001001 ,
b00000000000000000000000010001001 /
#380
0"
b00000000000000000000000001111111 $
#385
1"
b00000000000000000111111100000000 -
b11111111111111111111111101000110 +
b00000000000000001000100111110011 ,
b00000000000000000000000010001010 /
#390
0"
b00000000000000000000000010011001 $
#395
1"
b00000000000000001001100100000000 -
b11111111111111111111111010100001 +
b00000000000000001000100100111001 ,
b00000000000000000000000010001001 /
#400
0"
b00000000000000000000000010010110 $
#405
1"
b00000000000000001001011000000000 -
b00000000000000000000000111111000 +
b00000000000000001000011111011010 ,
#410
0"
b00000000000000000000000010000110 $
#415
1"
b00000000000000001000011000000000 -
b00000000000000000000000111000100 +
b00000000000000001000100111010010 ,
b00000000000000000000000010000111 /
#420
0"
b00000000000000000000000010001000 $
#425
1"
b00000000000000001000100000000000 -
b11111111111111111111111110000101 +
b00000000000000001000101110010110 ,
b00000000000000000000000010001001 /
#430
0"
b00000000000000000000000010010000 $
#435
1"
b00000000000000001001000000000000 -
b11111111111111111111111110001101 +
b00000000000000001000101100011011 ,
b00000000000000000000000010001011 /
#440
0"
b00000000000000000000000010011001 $
#445
1"
b00000000000000001001100100000000 -
b00000000000000000000000010011100 +
b00000000000000001000101010101000 ,
#450
0"
b00000000000000000000000010011010 $
#455
1"
b00000000000000001001101000000000 -
b00000000000000000000000111001011 +
b00000000000000001000101101000100 ,
b00000000000000000000000010001010 /
#460
0"
b00000000000000000000000010001100 $
#465
1"
b00000000000000001000110000000000 -
b00000000000000000000000111010111 +
b00000000000000001000110100001111 ,
b00000000000000000000000010001011 /
#470
0"
b00000000000000000000000010101000 $
#475
1"
b00000000000000001010100000000000 -
b11111111111111111111111111011110 +
b00000000000000001000111011100110 ,
b00000000000000000000000010001101 /
#480
0"
b00000000000000000000000010100011 $
#485
1"
b00000000000000001010001100000000 -
b00000000000000000000001100100011 +
b00000000000000001000111011000100 ,
b00000000000000000000000010001110 /
#490
0"
b00000000000000000000000010001010 $
#495
1"
b00000000000000001000101000000000 -
b00000000000000000000001010000111 +
b00000000000000001001000111100111 ,
#500
0"
b00000000000000000000000010100100 $
#505
1"
b00000000000000001010010000000000 -
b11111111111111111111111100000011 +
b00000000000000001001010001101110 ,
b00000000000000000000000010010001 /
#510
0"
b00000000000000000000000010001010 $
#515
1"
b00000000000000001000101000000000 -
b00000000000000000000000111110010 +
b00000000000000001001001101110001 ,
b00000000000000000000000010010100 /
#520
0"
b00000000000000000000000010001011 $
#525
1"
b00000000000000001000101100000000 -
b11111111111111111111111011010001 +
b00000000000000001001010101100011 ,
b00000000000000000000000010010011 /
#530
0"
b00000000000000000000000010001111 $
#535
1"
b00000000000000001000111100000000 -
b11111111111111111111111010110011 +
b00000000000000001001010000110100 ,
b00000000000000000000000010010101 /
#540
0"
b00000000000000000000000010011001 $
#545
1"
b00000000000000001001100100000000 -
b11111111111111111111111101011001 +
b00000000000000001001001011100111 ,
b00000000000000000000000010010100 /
#550
0"
b00000000000000000000000010100100 $
#555
1"
b00000000000000001010010000000000 -
b00000000000000000000000011000011 +
b00000000000000001001001001000000 ,
b00000000000000000000000010010010 /
#560
0"
b00000000000000000000000010010110 $
#565
1"
b00000000000000001001011000000000 -
b00000000000000000000001000111000 +
b00000000000000001001001100000011 ,
#570
0"
b00000000000000000000000010011010 $
#575
1"
b00000000000000001001101000000000 -
b00000000000000000000000001011111 +
b00000000000000001001010100111011 ,
b00000000000000000000000010010011 /
#580
0"
b00000000000000000000000010000110 $
#585
1"
b00000000000000001000011000000000 -
b00000000000000000000000010011000 +
b00000000000000001001010110011010 ,
b00000000000000000000000010010101 /
#590
0"
b00000000000000000000000010011100 $
#595
1"
b00000000000000001001110000000000 -
b11111111111111111111111000001100 +
b00000000000000001001011000110010 ,
#600
0"
b00000000000000000000000010000010 $
#605
1"
b00000000000000001000001000000000 -
b00000000000000000000000010111001 +
b00000000000000001001010000111110 ,
b00000000000000000000000010010110 /
#610
0"
b00000000000000000000000010010000 $
#615
1"
b00000000000000001001000000000000 -
b11111111111111111111110110111000 +
b00000000000000001001010011110111 ,
b00000000000000000000000010010100 /
#620
0"
b00000000000000000000000010100000 $
#625
1"
b00000000000000001010000000000000 -
b11111111111111111111111101100001 +
b00000000000000001001001010101111 ,
#630
0"
b00000000000000000000000010100110 $
#635
1"
b00000000000000001010011000000000 -
b00000000000000000000000110101010 +
b00000000000000001001001000010000 ,
b00000000000000000000000010010010 /
#640
0"
b00000000000000000000000010100011 $
#645
1"
b00000000000000001010001100000000 -
b00000000000000000000001001111110 +
b00000000000000001001001110111010 ,
#650
0"
b00000000000000000000000010001101 $
#655
1"
b00000000000000001000110100000000 -
b00000000000000000000000111101000 +
b00000000000000001001011000111000 ,
b00000000000000000000000010010011 /
#660
0"
b00000000000000000000000010010100 $
#661
#665
1"
b00000000000000001001010000000000 -
b11111111111111111111111011011001 +
b00000000000000001001100000100000 ,
b00000000000000000000000010010110 /
#670
0"
1'
b00000000000000000000000010100001 $
#675
1"
b00000000000000001010000100000000 -
b11111111111111111111111101111100 +
b00000000000000001001011011111001 ,
b00000000000000000000000010011000 /
#680
0"
b00000000000000000000000010011110 $
#685
1"
b00000000000000001001111000000000 -
b00000000000000000000000101000000 +
b00000000000000001001011001110101 ,
b00000000000000000000000010010110 /
#690
0"
b00000000000000000000000010001100 $
#695
1"
b00000000000000001000110000000000 -
b00000000000000000000000011110001 +
b00000000000000001001011110110101 ,
#700
0"
b00000000000000000000000010010001 $
#705
1"
b00000000000000001001000100000000 -
b11111111111111111111111010001001 +
b00000000000000001001100010100110 ,
b00000000000000000000000010010111 /
#710
0"
b00000000000000000000000010010011 $
#715
1"
b00000000000000001001001100000000 -
b11111111111111111111111100001011 +
b00000000000000001001011100101111 ,
b00000000000000000000000010011000 /
#720
0"
b00000000000000000000000010000000 $
#725
1"
b00000000000000001000000000000000 -
b11111111111111111111111101111010 +
b00000000000000001001011000111010 ,
b00000000000000000000000010010111 /
#730
0"
b00000000000000000000000010100001 $
#735
1"
b00000000000000001010000100000000 -
b11111111111111111111110100111000 +
b00000000000000001001010110110100 ,
b00000000000000000000000010010110 /
#740
0"
b00000000000000000000000010001101 $
#745
1"
b00000000000000001000110100000000 -
b00000000000000000000000101101001 +
b00000000000000001001001011101100 ,
b00000000000000000000000010010101 /
#750
0"
b00000000000000000000000010000100 $
#755
1"
b00000000000000001000010000000000 -
b11111111111111111111111101000010 +
b00000000000000001001010001010101 ,
b00000000000000000000000010010010 /
#760
0"
b00000000000000000000000010010001 $
#765
1"
b00000000000000001001000100000000 -
b11111111111111111111110111110101 +
b00000000000000001001001110010111 ,
b00000000000000000000000010010100 /
#770
0"
b00000000000000000000000010010111 $
#775
1"
b00000000000000001001011100000000 -
b11111111111111111111111110101101 +
b00000000000000001001000110001100 ,
b00000000000000000000000010010011 /
#780
0"
b00000000000000000000000010010010 $
#785
1"
b00000000000000001001001000000000 -
b00000000000000000000000010101110 +
b00000000000000001001000100111001 ,
b00000000000000000000000010010001 /
#790
0"
b00000000000000000000000001111100 $
#795
1"
b00000000000000000111110000000000 -
b00000000000000000000000000011000 +
b00000000000000001001000111100111 ,
#800
0"
b00000000000000000000000010001111 $
#805
1"
b00000000000000001000111100000000 -
b11111111111111111111110101000011 +
b00000000000000001001000111111111 ,
#810
0"
b00000000000000000000000010001010 $
#815
1"
b00000000000000001000101000000000 -
b11111111111111111111111110100000 +
b00000000000000001000111101000010 ,
#820
0"
b00000000000000000000000001111011 $
#825
1"
b00000000000000000111101100000000 -
b11111111111111111111111101010111 +
b00000000000000001000111011100010 ,
b00000000000000000000000010001111 /
#830
0"
#835
1"
b11111111111111111111110110000011 +
b00000000000000001000111000111001 ,
b00000000000000000000000010001110 /
#840
0"
b00000000000000000000000001111110 $
#845
1"
b00000000000000000111111000000000 -
b11111111111111111111110110011000 +
b00000000000000001000101110111100 ,
#850
0"
b00000000000000000000000010000101 $
#855
1"
b00000000000000001000010100000000 -
b11111111111111111111111001001000 +
b00000000000000001000100101010100 ,
b00000000000000000000000010001011 /
#860
0"
b00000000000000000000000001111100 $
#865
1"
b00000000000000000111110000000000 -
b11111111111111111111111101110101 +
b00000000000000001000011110011100 ,
b00000000000000000000000010001001 /
#870
0"
b00000000000000000000000001111111 $
#875
1"
b00000000000000000111111100000000 -
b11111111111111111111111010001100 +
b00000000000000001000011100010001 ,
b00000000000000000000000010000111 /
#880
0"
b00000000000000000000000010010010 $
#885
1"
b00000000000000001001001000000000 -
b11111111111111111111111011111101 +
b00000000000000001000010110011101 ,
#890
0"
b00000000000000000000000001110100 $
#895
1"
b00000000000000000111010000000000 -
b00000000000000000000000110001100 +
b00000000000000001000010010011010 ,
b00000000000000000000000010000101 /
#900
0"
b00000000000000000000000001111010 $
#905
1"
b00000000000000000111101000000000 -
b11111111111111111111110111101100 +
b00000000000000001000011000100110 ,
b00000000000000000000000010000100 /
#910
0"
b00000000000000000000000010011010 $
#915
1"
b00000000000000001001101000000000 -
b11111111111111111111111001111011 +
b00000000000000001000010000010010 ,
b00000000000000000000000010000110 /
#920
0"
b00000000000000000000000010010101 $
#925
1"
b00000000000000001001010100000000 -
b00000000000000000000001010111101 +
b00000000000000001000001010001101 ,
b00000000000000000000000010000100 /
#930
0"
b00000000000000000000000010000110 $
#935
1"
b00000000000000001000011000000000 -
b00000000000000000000001001001110 +
b00000000000000001000010101001010 ,
b00000000000000000000000010000010 /
#940
0"
b00000000000000000000000010010110 $
#945
1"
b00000000000000001001011000000000 -
b00000000000000000000000000010110 +
b00000000000000001000011110011000 ,
b00000000000000000000000010000101 /
#950
0"
b00000000000000000000000010001010 $
#955
1"
b00000000000000001000101000000000 -
b00000000000000000000000111001101 +
b00000000000000001000011110101110 ,
b00000000000000000000000010000111 /
#960
0"
b00000000000000000000000010010110 $
#965
1"
b00000000000000001001011000000000 -
b00000000000000000000000001001010 +
b00000000000000001000100101111011 ,
#970
0"
b00000000000000000000000010001111 $
#975
1"
b00000000000000001000111100000000 -
b00000000000000000000000110010000 +
b00000000000000001000100111000101 ,
b00000000000000000000000010001001 /
#980
0"
b00000000000000000000000010000001 $
#985
1"
b00000000000000001000000100000000 -
b00000000000000000000000010100111 +
b00000000000000001000101101010101 ,
#990
0"
b00000000000000000000000010010010 $
#995
1"
b00000000000000001001001000000000 -
b11111111111111111111111010110101 +
b00000000000000001000101111111100 ,
b00000000000000000000000010001011 /
#1000
0"
b00000000000000000000000001110111 $
#1005
1"
b00000000000000000111011100000000 -
b00000000000000000000000011000000 +
b00000000000000001000101010110001 ,
#1010
0"
b00000000000000000000000001110100 $
#1015
1"
b00000000000000000111010000000000 -
b11111111111111111111110110001001 +
b00000000000000001000101101110001 ,
b00000000000000000000000010001010 /
#1020
0"
b00000000000000000000000010001100 $
#1025
1"
b00000000000000001000110000000000 -
b11111111111111111111110100010001 +
b00000000000000001000100011111010 ,
b00000000000000000000000010001011 /
#1030
0"
b00000000000000000000000001111111 $
#1035
1"
b00000000000000000111111100000000 -
b00000000000000000000000001100000 +
b00000000000000001000011000001011 ,
b00000000000000000000000010001000 /
#1040
0"
b00000000000000000000000001101100 $
#1045
1"
b00000000000000000110110000000000 -
b11111111111111111111111100011110 +
b00000000000000001000011001101011 ,
b00000000000000000000000010000110 /
#1050
0"
b00000000000000000000000010001100 $
#1055
1"
b00000000000000001000110000000000 -
b11111111111111111111110010110010 +
b00000000000000001000010110001001 ,
#1060
0"
b00000000000000000000000001110110 $
#1065
1"
b00000000000000000111011000000000 -
b00000000000000000000000011001110 +
b00000000000000001000001000111011 ,
b00000000000000000000000010000101 /
#1070
0"
b00000000000000000000000001101101 $
#1075
1"
b00000000000000000110110100000000 -
b11111111111111111111111001111000 +
b00000000000000001000001100001001 ,
b00000000000000000000000010000010 /
#1080
0"
b00000000000000000000000010001010 $
#1085
1"
b00000000000000001000101000000000 -
b11111111111111111111110100111110 +
b00000000000000001000000110000001 ,
b00000000000000000000000010000011 /
#1090
0"
b00000000000000000000000001101101 $
#1095
1"
b00000000000000000110110100000000 -
b00000000000000000000000100001111 +
b00000000000000000111111010111111 ,
b00000000000000000000000010000001 /
#1100
0"
b00000000000000000000000001111100 $
#1105
1"
b00000000000000000111110000000000 -
b11111111111111111111110111001000 +
b00000000000000000111111111001110 ,
b00000000000000000000000001111110 /
#1110
0"
b00000000000000000000000010000100 $
#1115
1"
b00000000000000001000010000000000 -
b11111111111111111111111110000110 +
b00000000000000000111110110010110 ,
b00000000000000000000000001111111 /
#1120
0"
b00000000000000000000000001111011 $
#1125
1"
b00000000000000000111101100000000 -
b00000000000000000000000011001101 +
b00000000000000000111110100011100 ,
b00000000000000000000000001111101 /
#1130
0"
b00000000000000000000000001100011 $
#1135
1"
b00000000000000000110001100000000 -
b11111111111111111111111110111100 +
b00000000000000000111110111101001 ,
#1140
0"
b00000000000000000000000010000001 $
#1145
1"
b00000000000000001000000100000000 -
b11111111111111111111110010100010 +
b00000000000000000111110110100101 ,
#1150
0"
b00000000000000000000000001110101 $
#1155
1"
b00000000000000000111010100000000 -
b00000000000000000000000001101011 +
b00000000000000000111101001000111 ,
#1160
0"
b00000000000000000000000010000000 $
#1165
1"
b00000000000000001000000000000000 -
b11111111111111111111111101010111 +
b00000000000000000111101010110010 ,
b00000000000000000000000001111010 /
#1170
0"
b00000000000000000000000001011111 $
#1175
1"
b00000000000000000101111100000000 -
b00000000000000000000000010101001 +
b00000000000000000111101000001001 ,
#1180
0"
b00000000000000000000000001111101 $
#1185
1"
b00000000000000000111110100000000 -
b11111111111111111111110010011110 +
b00000000000000000111101010110010 ,
#1190
0"
b00000000000000000000000001101010 $
#1195
1"
b00000000000000000110101000000000 -
b00000000000000000000000001001001 +
b00000000000000000111011101010000 ,
#1200
0"
b00000000000000000000000001100010 $
#1205
1"
b00000000000000000110001000000000 -
b11111111111111111111111001010110 +
b00000000000000000111011110011001 ,
b00000000000000000000000001110111 /
#1210
0"
b00000000000000000000000001110100 $
#1215
1"
b00000000000000000111010000000000 -
b11111111111111111111110101001100 +
b00000000000000000111010111101111 ,
#1220
0"
b00000000000000000000000001101011 $
#1225
1"
b00000000000000000110101100000000 -
b11111111111111111111111111000010 +
b00000000000000000111001100111011 ,
b00000000000000000000000001110101 /
#1230
0"
b00000000000000000000000001110111 $
#1235
1"
b00000000000000000111011100000000 -
b11111111111111111111111011111000 +
b00000000000000000111001011111101 ,
b00000000000000000000000001110011 /
#1240
0"
b00000000000000000000000001100101 $
#1245
1"
b00000000000000000110010100000000 -
b00000000000000000000000010000000 +
b00000000000000000111000111110101 ,
b00000000000000000000000001110010 /
#1250
0"
b00000000000000000000000001111001 $
#1255
1"
b00000000000000000111100100000000 -
b11111111111111111111111001100001 +
b00000000000000000111001001110101 ,
b00000000000000000000000001110001 /
#1260
0"
b00000000000000000000000001011101 $
#1265
1"
b00000000000000000101110100000000 -
b00000000000000000000000011010001 +
b00000000000000000111000011010110 ,
b00000000000000000000000001110010 /
#1270
0"
b00000000000000000000000001101110 $
#1275
1"
b00000000000000000110111000000000 -
b11111111111111111111110110000101 +
b00000000000000000111000110100111 ,
b00000000000000000000000001110000 /
#1280
0"
b00000000000000000000000001101011 $
#1285
1"
b00000000000000000110101100000000 -
b11111111111111111111111110001011 +
b00000000000000000110111100101100 ,
b00000000000000000000000001110001 /
#1290
0"
b00000000000000000000000001101000 $
#1295
1"
b00000000000000000110100000000000 -
b11111111111111111111111101111010 +
b00000000000000000110111010110111 ,
b00000000000000000000000001101111 /
#1300
0"
b00000000000000000000000001010101 $
#1305
1"
b00000000000000000101010100000000 -
b11111111111111111111111100101001 +
b00000000000000000110111000110001 ,
b00000000000000000000000001101110 /
#1310
0"
b00000000000000000000000001101001 $
#1315
1"
b00000000000000000110100100000000 -
b11111111111111111111110011011001 +
b00000000000000000110110101011010 ,
#1320
0"
b00000000000000000000000001110011 $
#1325
1"
b00000000000000000111001100000000 -
b11111111111111111111111101110100 +
b00000000000000000110101000110011 ,
b00000000000000000000000001101101 /
#1330
0"
b00000000000000000000000001110110 $
#1335
1"
b00000000000000000111011000000000 -
b00000000000000000000000100011001 +
b00000000000000000110100110100111 ,
b00000000000000000000000001101010 /
#1340
0"
b00000000000000000000000001110000 $
#1345
1"
b00000000000000000111000000000000 -
b00000000000000000000000110001011 +
b00000000000000000110101011000000 ,
b00000000000000000000000001101001 /
#1350
0"
b00000000000000000000000001010000 $
#1355
1"
b00000000000000000101000000000000 -
b00000000000000000000000010101000 +
b00000000000000000110110001001011 ,
b00000000000000000000000001101010 /
#1360
0"
b00000000000000000000000001100010 $
#1365
1"
b00000000000000000110001000000000 -
b11111111111111111111110001110110 +
b00000000000000000110110011110011 ,
b00000000000000000000000001101100 /
#1370
0"
b00000000000000000000000001001100 $
#1375
1"
b00000000000000000100110000000000 -
b11111111111111111111111010100001 +
b00000000000000000110100101101001 ,
#1380
0"
b00000000000000000000000001011001 $
#1385
1"
b00000000000000000101100100000000 -
b11111111111111111111110001010010 +
b00000000000000000110100000001010 ,
b00000000000000000000000001101001 /
#1390
0"
b00000000000000000000000001001111 $
#1395
1"
b00000000000000000100111100000000 -
b11111111111111111111111000011110 +
b00000000000000000110010001011100 ,
b00000000000000000000000001101000 /
#1400
0"
b00000000000000000000000001011010 $
#1405
1"
b00000000000000000101101000000000 -
b11111111111111111111110101010100 +
b00000000000000000110001001111010 ,
b00000000000000000000000001100100 /
#1410
0"
b00000000000000000000000001101111 $
#1415
1"
b00000000000000000110111100000000 -
b11111111111111111111111011110000 +
b00000000000000000101111111001110 ,
b00000000000000000000000001100010 /
#1420
0"
#1425
1"
b00000000000000000000000111100110 +
b00000000000000000101111010111110 ,
b00000000000000000000000001011111 /
#1430
0"
b00000000000000000000000001010100 $
#1435
1"
b00000000000000000101010000000000 -
b00000000000000000000001000001000 +
b00000000000000000110000010100100 ,
b00000000000000000000000001011110 /
#1440
0"
b00000000000000000000000001011011 $
#1445
1"
b00000000000000000101101100000000 -
b11111111111111111111111001101011 +
b00000000000000000110001010101100 ,
b00000000000000000000000001100000 /
#1450
0"
b00000000000000000000000001001111 $
#1455
1"
b00000000000000000100111100000000 -
b11111111111111111111111100001010 +
b00000000000000000110000100010111 ,
b00000000000000000000000001100010 /
#1460
0"
b00000000000000000000000001001100 $
#1465
1"
b00000000000000000100110000000000 -
b11111111111111111111110110111101 +
b00000000000000000110000000100001 ,
b00000000000000000000000001100001 /
#1470
0"
#1475
1"
b11111111111111111111110101111011 +
b00000000000000000101110111011110 ,
b00000000000000000000000001100000 /
#1480
0"
b00000000000000000000000001010111 $
#1485
1"
b00000000000000000101011100000000 -
b11111111111111111111110111000100 +
b00000000000000000101101101011001 ,
b00000000000000000000000001011101 /
#1490
0"
b00000000000000000000000001011110 $
#1495
1"
b00000000000000000101111000000000 -
b11111111111111111111111101110100 +
b00000000000000000101100100011101 ,
b00000000000000000000000001011011 /
#1500
0"
b00000000000000000000000001010011 $
#1505
1"
b00000000000000000101001100000000 -
b00000000000000000000000010011100 +
b00000000000000000101100010010001 ,
b00000000000000000000000001011001 /
#1510
0"
b00000000000000000000000001011100 $
#1515
1"
b00000000000000000101110000000000 -
b11111111111111111111111101001101 +
b00000000000000000101100100101101 ,
b00000000000000000000000001011000 /
#1520
0"
b00000000000000000000000001100010 $
#1525
1"
b00000000000000000110001000000000 -
b00000000000000000000000001011010 +
b00000000000000000101100001111010 ,
b00000000000000000000000001011001 /
#1530
0"
b00000000000000000000000001001010 $
#1535
1"
b00000000000000000100101000000000 -
b00000000000000000000000100110000 +
b00000000000000000101100011010100 ,
b00000000000000000000000001011000 /
#1540
0"
b00000000000000000000000001011011 $
#1545
1"
b00000000000000000101101100000000 -
b11111111111111111111111000100101 +
b00000000000000000101101000000100 ,
#1550
0"
b00000000000000000000000001010000 $
#1555
1"
b00000000000000000101000000000000 -
b00000000000000000000000000011111 +
b00000000000000000101100000101001 ,
b00000000000000000000000001011010 /
#1560
0"
b00000000000000000000000001100000 $
#1565
1"
b00000000000000000110000000000000 -
b11111111111111111111111011111010 +
b00000000000000000101100001001000 ,
b00000000000000000000000001011000 /
#1570
0"
b00000000000000000000000001011000 $
#1575
1"
b00000000000000000101100000000000 -
b00000000000000000000000011110111 +
b00000000000000000101011101000010 ,
#1580
0"
b00000000000000000000000001001100 $
#1585
1"
b00000000000000000100110000000000 -
b00000000000000000000000000010111 +
b00000000000000000101100000111001 ,
b00000000000000000000000001010111 /
#1590
0"
b00000000000000000000000001011100 $
#1595
1"
b00000000000000000101110000000000 -
b11111111111111111111111001111000 +
b00000000000000000101100001010000 ,
b00000000000000000000000001011000 /
#1600
0"
b00000000000000000000000001011101 $
#1605
1"
b00000000000000000101110100000000 -
b00000000000000000000000001110110 +
b00000000000000000101011011001000 ,
#1610
0"
b00000000000000000000000001001001 $
#1615
1"
b00000000000000000100100100000000 -
b00000000000000000000000011000111 +
b00000000000000000101011100111110 ,
b00000000000000000000000001010110 /
#1620
0"
b00000000000000000000000001010001 $
#1625
1"
b00000000000000000101000100000000 -
b11111111111111111111111000111000 +
b00000000000000000101100000000101 ,
b00000000000000000000000001010111 /
#1630
0"
b00000000000000000000000001100111 $
#1635
1"
b00000000000000000110011100000000 -
b11111111111111111111111100011111 +
b00000000000000000101011000111101 ,
b00000000000000000000000001011000 /
#1640
0"
b00000000000000000000000001010000 $
#1645
1"
b00000000000000000101000000000000 -
b00000000000000000000001000011000 +
b00000000000000000101010101011100 ,
b00000000000000000000000001010110 /
#1650
0"
b00000000000000000000000001100000 $
#1655
1"
b00000000000000000110000000000000 -
b11111111111111111111111101010100 +
b00000000000000000101011101110100 ,
b00000000000000000000000001010101 /
#1660
0"
b00000000000000000000000001101100 $
#1665
1"
b00000000000000000110110000000000 -
b00000000000000000000000100010001 +
b00000000000000000101011011001000 ,
b00000000000000000000000001010111 /
#1670
0"
b00000000000000000000000001011100 $
#1675
1"
b00000000000000000101110000000000 -
b00000000000000000000001010100111 +
b00000000000000000101011111011001 ,
b00000000000000000000000001010110 /
#1680
0"
b00000000000000000000000001011110 $
#1685
1"
b00000000000000000101111000000000 -
b00000000000000000000000010000100 +
b00000000000000000101101010000000 ,
b00000000000000000000000001010111 /
#1690
0"
b00000000000000000000000001010111 $
#1695
1"
b00000000000000000101011100000000 -
b00000000000000000000000001110000 +
b00000000000000000101101100000100 ,
b00000000000000000000000001011010 /
#1700
0"
b00000000000000000000000001011110 $
#1705
1"
b00000000000000000101111000000000 -
b11111111111111111111111101111111 +
b00000000000000000101101101110100 ,
b00000000000000000000000001011011 /
#1710
0"
b00000000000000000000000001100000 $
#1715
1"
b00000000000000000110000000000000 -
b00000000000000000000000001010001 +
b00000000000000000101101011110011 ,
#1720
0"
b00000000000000000000000001011011 $
#1725
1"
b00000000000000000101101100000000 -
b00000000000000000000000010100001 +
b00000000000000000101101101000100 ,
b00000000000000000000000001011010 /
#1730
0"
b00000000000000000000000001101101 $
#1735
1"
b00000000000000000110110100000000 -
b11111111111111111111111111110111 +
b00000000000000000101101111100101 ,
b00000000000000000000000001011011 /
#1740
0"
b00000000000000000000000001011011 $
