out/testbench/my_rc_tb.1544025963.7462087.vcd
$date
    Wed Dec  5 17:06:03 2018
$end
$version
    MyHDL 0.10
$end
$timescale
    1ns
$end

$scope module my_rc_tb $end
$var reg 1 ! reset $end
$var reg 1 " clk $end
$var reg 1 # axis_raw_tvalid $end
$var reg 32 $ axis_raw_tdata $end
$var reg 1 % axis_raw_tlast $end
$var reg 1 & axis_raw_tready $end
$var reg 1 ' axis_sum_tready $end
$var reg 1 ( axis_sum_tlast $end
$scope module clk_stim0 $end
$var reg 1 " clk $end
$upscope $end
$scope module my_rc $end
$var reg 32 ) vin $end
$var reg 1 ! reset $end
$var reg 1 " clk $end
$var real 1 * state $end
$var reg 32 + d $end
$var reg 32 , Vout $end
$var reg 32 - Vin $end
$var reg 1 . axis_m_sum_tvalid $end
$var reg 1 ( axis_m_sum_tlast $end
$var reg 1 & axis_s_raw_tready $end
$var reg 1 # axis_s_raw_tvalid $end
$var reg 32 $ axis_s_raw_tdata $end
$var reg 32 / axis_m_sum_tdata $end
$var reg 1 % axis_s_raw_tlast $end
$var reg 1 ' axis_m_sum_tready $end
$upscope $end
$upscope $end

$enddefinitions $end
$dumpvars
0!
0"
0#
b00000000000000000000000000000000 $
0%
0&
0'
0(
b00000000000000000000000000000000 )
sSTART *
b00000000000000000000000000000000 +
b00000000000000000000000000000000 ,
b00000000000000000000000000000000 -
0.
b00000000000000000000000000000000 /
$end
#5
1"
#10
0"
#15
1"
#20
0"
#25
1"
#30
0"
#35
1"
#40
0"
#45
1"
#50
0"
#54
#55
1"
#60
0"
1!
#65
1"
sCALCULATE *
#70
0"
1#
b00000000000000000000000010000110 $
#75
1"
1.
1&
b00000000000000001000011000000000 -
#80
0"
#85
1"
b00000000000000000001000011000000 +
#90
0"
b00000000000000000000000010001010 $
#95
1"
b00000000000000001000101000000000 -
b00000000000000000001000011000000 ,
#100
0"
b00000000000000000000000001110001 $
#105
1"
b00000000000000000111000100000000 -
b00000000000000000000111100101000 +
b00000000000000000010000110000000 ,
b00000000000000000000000000010000 /
#110
0"
b00000000000000000000000010000010 $
#115
1"
b00000000000000001000001000000000 -
b00000000000000000000100111110000 +
b00000000000000000011000010101000 ,
b00000000000000000000000000100001 /
#120
0"
b00000000000000000000000001110100 $
#125
1"
b00000000000000000111010000000000 -
b00000000000000000000101000101011 +
b00000000000000000011101010011000 ,
b00000000000000000000000000110000 /
#130
0"
b00000000000000000000000010000001 $
#135
1"
b00000000000000001000000100000000 -
b00000000000000000000011100101101 +
b00000000000000000100010011000011 ,
b00000000000000000000000000111010 /
#140
0"
b00000000000000000000000001111101 $
#145
1"
b00000000000000000111110100000000 -
b00000000000000000000011110000111 +
b00000000000000000100101111110000 ,
b00000000000000000000000001000100 /
#150
0"
b00000000000000000000000001111011 $
#155
1"
b00000000000000000111101100000000 -
b00000000000000000000011000100010 +
b00000000000000000101001101110111 ,
b00000000000000000000000001001011 /
#160
0"
b00000000000000000000000001110111 $
#165
1"
b00000000000000000111011100000000 -
b00000000000000000000010011110001 +
b00000000000000000101100110011001 ,
b00000000000000000000000001010011 /
#170
0"
b00000000000000000000000010000000 $
#175
1"
b00000000000000001000000000000000 -
b00000000000000000000001110101100 +
b00000000000000000101111010001010 ,
b00000000000000000000000001011001 /
#180
0"
b00000000000000000000000010001000 $
#185
1"
b00000000000000001000100000000000 -
b00000000000000000000010000101110 +
b00000000000000000110001000110110 ,
b00000000000000000000000001011110 /
#190
0"
b00000000000000000000000010001001 $
#195
1"
b00000000000000001000100100000000 -
b00000000000000000000010010111001 +
b00000000000000000110011001100100 ,
b00000000000000000000000001100010 /
#200
0"
b00000000000000000000000010001111 $
#205
1"
b00000000000000001000111100000000 -
b00000000000000000000010001010011 +
b00000000000000000110101100011101 ,
b00000000000000000000000001100110 /
#210
0"
b00000000000000000000000010010011 $
#215
1"
b00000000000000001001001100000000 -
b00000000000000000000010001111100 +
b00000000000000000110111101110000 ,
b00000000000000000000000001101011 /
#220
0"
b00000000000000000000000001110101 $
#225
1"
b00000000000000000111010100000000 -
b00000000000000000000010001110010 +
b00000000000000000111001111101100 ,
b00000000000000000000000001101111 /
#230
0"
b00000000000000000000000010000100 $
#235
1"
b00000000000000001000010000000000 -
b00000000000000000000000000100010 +
b00000000000000000111100001011110 ,
b00000000000000000000000001110011 /
#240
0"
b00000000000000000000000010010001 $
#245
1"
b00000000000000001001000100000000 -
b00000000000000000000000101110100 +
b00000000000000000111100010000000 ,
b00000000000000000000000001111000 /
#250
0"
b00000000000000000000000010011001 $
#255
1"
b00000000000000001001100100000000 -
b00000000000000000000001100010000 +
b00000000000000000111100111110100 ,
#260
0"
b00000000000000000000000010000010 $
#265
1"
b00000000000000001000001000000000 -
b00000000000000000000001111100001 +
b00000000000000000111110100000100 ,
b00000000000000000000000001111001 /
#270
0"
b00000000000000000000000001111100 $
#275
1"
b00000000000000000111110000000000 -
b00000000000000000000000010011111 +
b00000000000000001000000011100101 ,
b00000000000000000000000001111101 /
#280
0"
b00000000000000000000000010000011 $
#285
1"
b00000000000000001000001100000000 -
b11111111111111111111111101100011 +
b00000000000000001000000110000100 ,
b00000000000000000000000010000000 /
#290
0"
b00000000000000000000000010010000 $
#295
1"
b00000000000000001001000000000000 -
b00000000000000000000000000101111 +
b00000000000000001000000011100111 ,
b00000000000000000000000010000001 /
#300
0"
b00000000000000000000000001111000 $
#305
1"
b00000000000000000111100000000000 -
b00000000000000000000000111100011 +
b00000000000000001000000100010110 ,
b00000000000000000000000010000000 /
#310
0"
b00000000000000000000000010011110 $
#315
1"
b00000000000000001001111000000000 -
b11111111111111111111111011011101 +
b00000000000000001000001011111001 ,
b00000000000000000000000010000001 /
#320
0"
b00000000000000000000000001111011 $
#325
1"
b00000000000000000111101100000000 -
b00000000000000000000001101100000 +
b00000000000000001000000111010110 ,
b00000000000000000000000010000010 /
#330
0"
b00000000000000000000000010001100 $
#335
1"
b00000000000000001000110000000000 -
b11111111111111111111111100100101 +
b00000000000000001000010100110110 ,
b00000000000000000000000010000001 /
#340
0"
b00000000000000000000000010000110 $
#345
1"
b00000000000000001000011000000000 -
b00000000000000000000000011011001 +
b00000000000000001000010001011011 ,
b00000000000000000000000010000101 /
#350
0"
b00000000000000000000000010010111 $
#355
1"
b00000000000000001001011100000000 -
b00000000000000000000000000110100 +
b00000000000000001000010100110100 ,
b00000000000000000000000010000100 /
#360
0"
b00000000000000000000000010000101 $
#365
1"
b00000000000000001000010100000000 -
b00000000000000000000001000111001 +
b00000000000000001000010101101000 ,
b00000000000000000000000010000101 /
#370
0"
b00000000000000000000000010000010 $
#375
1"
b00000000000000001000001000000000 -
b11111111111111111111111111110011 +
b00000000000000001000011110100001 ,
#380
0"
b00000000000000000000000010001011 $
#385
1"
b00000000000000001000101100000000 -
b11111111111111111111111101001011 +
b00000000000000001000011110010100 ,
b00000000000000000000000010000111 /
#390
0"
b00000000000000000000000010010001 $
#395
1"
b00000000000000001001000100000000 -
b00000000000000000000000001101101 +
b00000000000000001000011011011111 ,
#400
0"
b00000000000000000000000010001101 $
#405
1"
b00000000000000001000110100000000 -
b00000000000000000000000101000100 +
b00000000000000001000011101001100 ,
b00000000000000000000000010000110 /
#410
0"
b00000000000000000000000010011100 $
#415
1"
b00000000000000001001110000000000 -
b00000000000000000000000010110110 +
b00000000000000001000100010010000 ,
b00000000000000000000000010000111 /
#420
0"
b00000000000000000000000010010000 $
#425
1"
b00000000000000001001000000000000 -
b00000000000000000000001001101110 +
b00000000000000001000100101000110 ,
b00000000000000000000000010001000 /
#430
0"
b00000000000000000000000010000111 $
#435
1"
b00000000000000001000011100000000 -
b00000000000000000000000011010111 +
b00000000000000001000101110110100 ,
b00000000000000000000000010001001 /
#440
0"
b00000000000000000000000010100000 $
#445
1"
b00000000000000001010000000000000 -
b11111111111111111111111101101001 +
b00000000000000001000110010001011 ,
b00000000000000000000000010001011 /
#450
0"
b00000000000000000000000010000010 $
#455
1"
b00000000000000001000001000000000 -
b00000000000000000000001001101110 +
b00000000000000001000101111110100 ,
b00000000000000000000000010001100 /
#460
0"
b00000000000000000000000010100001 $
#465
1"
b00000000000000001010000100000000 -
b11111111111111111111111011000001 +
b00000000000000001000111001100010 ,
b00000000000000000000000010001011 /
#470
0"
b00000000000000000000000010010111 $
#475
1"
b00000000000000001001011100000000 -
b00000000000000000000001001010011 +
b00000000000000001000110100100011 ,
b00000000000000000000000010001110 /
#480
0"
b00000000000000000000000010001100 $
#485
1"
b00000000000000001000110000000000 -
b00000000000000000000000100111011 +
b00000000000000001000111101110110 ,
b00000000000000000000000010001101 /
#490
0"
b00000000000000000000000010000111 $
#495
1"
b00000000000000001000011100000000 -
b11111111111111111111111110010001 +
b00000000000000001001000010110001 ,
b00000000000000000000000010001111 /
#500
0"
b00000000000000000000000010100000 $
#505
1"
b00000000000000001010000000000000 -
b11111111111111111111111011001001 +
b00000000000000001001000001000010 ,
b00000000000000000000000010010000 /
#510
0"
b00000000000000000000000010000001 $
#515
1"
b00000000000000001000000100000000 -
b00000000000000000000000111110111 +
b00000000000000001000111100001011 ,
#520
0"
b00000000000000000000000010010100 $
#525
1"
b00000000000000001001010000000000 -
b11111111111111111111111000111110 +
b00000000000000001001000100000010 ,
b00000000000000000000000010001111 /
#530
0"
b00000000000000000000000010100011 $
#535
1"
b00000000000000001010001100000000 -
b00000000000000000000000001011111 +
b00000000000000001000111101000000 ,
b00000000000000000000000010010001 /
#540
0"
b00000000000000000000000010010100 $
#545
1"
b00000000000000001001010000000000 -
b00000000000000000000001001111000 +
b00000000000000001000111110011111 ,
b00000000000000000000000010001111 /
#550
0"
b00000000000000000000000010000011 $
#555
1"
b00000000000000001000001100000000 -
b00000000000000000000000010001100 +
b00000000000000001001001000010111 ,
#560
0"
b00000000000000000000000010100000 $
#565
1"
b00000000000000001010000000000000 -
b11111111111111111111111000011101 +
b00000000000000001001001010100011 ,
b00000000000000000000000010010010 /
#570
0"
#575
1"
b00000000000000000000000110101011 +
b00000000000000001001000011000000 ,
#580
0"
b00000000000000000000000010010011 $
#585
1"
b00000000000000001001001100000000 -
b00000000000000000000000111101000 +
b00000000000000001001001001101011 ,
b00000000000000000000000010010000 /
#590
0"
b00000000000000000000000010001010 $
#595
1"
b00000000000000001000101000000000 -
b00000000000000000000000000010010 +
b00000000000000001001010001010011 ,
b00000000000000000000000010010010 /
#600
0"
b00000000000000000000000010100010 $
#605
1"
b00000000000000001010001000000000 -
b11111111111111111111111010110101 +
b00000000000000001001010001100101 ,
b00000000000000000000000010010100 /
#610
0"
b00000000000000000000000010001000 $
#615
1"
b00000000000000001000100000000000 -
b00000000000000000000000110110011 +
b00000000000000001001001100011010 ,
#620
0"
b00000000000000000000000010011101 $
#625
1"
b00000000000000001001110100000000 -
b11111111111111111111111010011100 +
b00000000000000001001010011001101 ,
b00000000000000000000000010010011 /
#630
0"
b00000000000000000000000010100110 $
#635
1"
b00000000000000001010011000000000 -
b00000000000000000000000100000110 +
b00000000000000001001001101101001 ,
b00000000000000000000000010010100 /
#640
0"
b00000000000000000000000010000101 $
#645
1"
b00000000000000001000010100000000 -
b00000000000000000000001001010010 +
b00000000000000001001010001101111 ,
b00000000000000000000000010010011 /
#650
0"
b00000000000000000000000010011001 $
#655
1"
b00000000000000001001100100000000 -
b11111111111111111111111000010010 +
b00000000000000001001011011000001 ,
b00000000000000000000000010010100 /
#660
0"
b00000000000000000000000010011000 $
#661
#665
1"
b00000000000000001001100000000000 -
b00000000000000000000000001000111 +
b00000000000000001001010011010011 ,
b00000000000000000000000010010110 /
#670
0"
1'
b00000000000000000000000010011100 $
#675
1"
b00000000000000001001110000000000 -
b00000000000000000000000001100101 +
b00000000000000001001010100011010 ,
b00000000000000000000000010010100 /
#680
0"
#685
1"
b00000000000000000000000011011100 +
b00000000000000001001010101111111 ,
b00000000000000000000000010010101 /
#690
0"
b00000000000000000000000010001111 $
#695
1"
b00000000000000001000111100000000 -
b00000000000000000000000011010000 +
b00000000000000001001011001011011 ,
#700
0"
b00000000000000000000000010001000 $
#705
1"
b00000000000000001000100000000000 -
b11111111111111111111111100010100 +
b00000000000000001001011100101011 ,
b00000000000000000000000010010110 /
#710
0"
b00000000000000000000000010001111 $
#715
1"
b00000000000000001000111100000000 -
b11111111111111111111111000011010 +
b00000000000000001001011000111111 ,
b00000000000000000000000010010111 /
#720
0"
b00000000000000000000000010011011 $
#725
1"
b00000000000000001001101100000000 -
b11111111111111111111111100011000 +
b00000000000000001001010001011001 ,
b00000000000000000000000010010110 /
#730
0"
b00000000000000000000000010100010 $
#735
1"
b00000000000000001010001000000000 -
b00000000000000000000000011010100 +
b00000000000000001001001101110001 ,
b00000000000000000000000010010100 /
#740
0"
b00000000000000000000000010100100 $
#745
1"
b00000000000000001010010000000000 -
b00000000000000000000000111010001 +
b00000000000000001001010001000101 ,
b00000000000000000000000010010011 /
#750
0"
b00000000000000000000000010010001 $
#755
1"
b00000000000000001001000100000000 -
b00000000000000000000000111110111 +
b00000000000000001001011000010110 ,
b00000000000000000000000010010100 /
#760
0"
b00000000000000000000000010100010 $
#765
1"
b00000000000000001010001000000000 -
b11111111111111111111111101011101 +
b00000000000000001001100000001101 ,
b00000000000000000000000010010110 /
#770
0"
b00000000000000000000000010011001 $
#775
1"
b00000000000000001001100100000000 -
b00000000000000000000000100111110 +
b00000000000000001001011101101010 ,
b00000000000000000000000010011000 /
#780
0"
b00000000000000000000000001111110 $
#785
1"
b00000000000000000111111000000000 -
b00000000000000000000000000110010 +
b00000000000000001001100010101000 ,
b00000000000000000000000010010111 /
#790
0"
b00000000000000000000000010011000 $
#795
1"
b00000000000000001001100000000000 -
b11111111111111111111110010101011 +
b00000000000000001001100011011010 ,
b00000000000000000000000010011000 /
#800
0"
b00000000000000000000000010011011 $
#805
1"
b00000000000000001001101100000000 -
b11111111111111111111111111100100 +
b00000000000000001001010110000101 ,
#810
0"
b00000000000000000000000010011101 $
#815
1"
b00000000000000001001110100000000 -
b00000000000000000000000010101111 +
b00000000000000001001010101101001 ,
b00000000000000000000000010010101 /
#820
0"
b00000000000000000000000010010011 $
#825
1"
b00000000000000001001001100000000 -
b00000000000000000000000011110010 +
b00000000000000001001011000011000 ,
#830
0"
b00000000000000000000000010000011 $
#835
1"
b00000000000000001000001100000000 -
b11111111111111111111111110011101 +
b00000000000000001001011100001010 ,
b00000000000000000000000010010110 /
#840
0"
b00000000000000000000000010011011 $
#845
1"
b00000000000000001001101100000000 -
b11111111111111111111110101111110 +
b00000000000000001001011010100111 ,
b00000000000000000000000010010111 /
#850
0"
b00000000000000000000000010001001 $
#855
1"
b00000000000000001000100100000000 -
b00000000000000000000000010001011 +
b00000000000000001001010000100101 ,
b00000000000000000000000010010110 /
#860
0"
b00000000000000000000000001111100 $
#865
1"
b00000000000000000111110000000000 -
b11111111111111111111111010011011 +
b00000000000000001001010010110000 ,
b00000000000000000000000010010100 /
#870
0"
b00000000000000000000000001111110 $
#875
1"
b00000000000000000111111000000000 -
b11111111111111111111110011101010 +
b00000000000000001001001101001011 ,
#880
0"
#885
1"
b11111111111111111111110101010110 +
b00000000000000001001000000110101 ,
b00000000000000000000000010010011 /
#890
0"
b00000000000000000000000010010100 $
#895
1"
b00000000000000001001010000000000 -
b11111111111111111111110110111001 +
b00000000000000001000110110001011 ,
b00000000000000000000000010010000 /
#900
0"
b00000000000000000000000010001111 $
#905
1"
b00000000000000001000111100000000 -
b00000000000000000000000011001110 +
b00000000000000001000101101000100 ,
b00000000000000000000000010001101 /
#910
0"
b00000000000000000000000001111001 $
#915
1"
b00000000000000000111100100000000 -
b00000000000000000000000001110111 +
b00000000000000001000110000010010 ,
b00000000000000000000000010001011 /
#920
0"
b00000000000000000000000010001011 $
#925
1"
b00000000000000001000101100000000 -
b11111111111111111111110110011101 +
b00000000000000001000110010001001 ,
b00000000000000000000000010001100 /
#930
0"
b00000000000000000000000001110011 $
#935
1"
b00000000000000000111001100000000 -
b11111111111111111111111111001110 +
b00000000000000001000101000100110 ,
#940
0"
b00000000000000000000000001110001 $
#945
1"
b00000000000000000111000100000000 -
b11111111111111111111110100011011 +
b00000000000000001000100111110100 ,
b00000000000000000000000010001010 /
#950
0"
b00000000000000000000000001111101 $
#955
1"
b00000000000000000111110100000000 -
b11111111111111111111110011100001 +
b00000000000000001000011100001111 ,
b00000000000000000000000010001001 /
#960
0"
b00000000000000000000000010010010 $
#965
1"
b00000000000000001001001000000000 -
b11111111111111111111111010111110 +
b00000000000000001000001111110000 ,
b00000000000000000000000010000111 /
#970
0"
b00000000000000000000000010000100 $
#975
1"
b00000000000000001000010000000000 -
b00000000000000000000000111000010 +
b00000000000000001000001010101110 ,
b00000000000000000000000010000011 /
#980
0"
b00000000000000000000000001110011 $
#985
1"
b00000000000000000111001100000000 -
b00000000000000000000000000101010 +
b00000000000000001000010001110000 ,
b00000000000000000000000010000010 /
#990
0"
b00000000000000000000000010000101 $
#995
1"
b00000000000000001000010100000000 -
b11111111111111111111110111010010 +
b00000000000000001000010010011010 ,
b00000000000000000000000010000100 /
#1000
0"
b00000000000000000000000001111100 $
#1005
1"
b00000000000000000111110000000000 -
b00000000000000000000000000001100 +
b00000000000000001000001001101100 ,
#1010
0"
b00000000000000000000000001110001 $
#1015
1"
b00000000000000000111000100000000 -
b11111111111111111111111100110010 +
b00000000000000001000001001111000 ,
b00000000000000000000000010000010 /
#1020
0"
b00000000000000000000000010001001 $
#1025
1"
b00000000000000001000100100000000 -
b11111111111111111111110111010001 +
b00000000000000001000000110101010 ,
#1030
0"
b00000000000000000000000001111001 $
#1035
1"
b00000000000000000111100100000000 -
b00000000000000000000000011101010 +
b00000000000000000111111101111011 ,
b00000000000000000000000010000001 /
#1040
0"
b00000000000000000000000010000101 $
#1045
1"
b00000000000000001000010100000000 -
b11111111111111111111111100110000 +
b00000000000000001000000001100101 ,
b00000000000000000000000001111111 /
#1050
0"
b00000000000000000000000001110111 $
#1055
1"
b00000000000000000111011100000000 -
b00000000000000000000000010010011 +
b00000000000000000111111110010101 ,
b00000000000000000000000010000000 /
#1060
0"
b00000000000000000000000001111100 $
#1065
1"
b00000000000000000111110000000000 -
b11111111111111111111111011101101 +
b00000000000000001000000000101000 ,
b00000000000000000000000001111111 /
#1070
0"
b00000000000000000000000010001011 $
#1075
1"
b00000000000000001000101100000000 -
b11111111111111111111111101111011 +
b00000000000000000111111100010101 ,
b00000000000000000000000010000000 /
#1080
0"
b00000000000000000000000001101001 $
#1085
1"
b00000000000000000110100100000000 -
b00000000000000000000000101111101 +
b00000000000000000111111010010000 ,
b00000000000000000000000001111111 /
#1090
0"
b00000000000000000000000001111101 $
#1095
1"
b00000000000000000111110100000000 -
b11111111111111111111110101001110 +
b00000000000000001000000000001101 ,
b00000000000000000000000001111110 /
#1100
0"
b00000000000000000000000010000111 $
#1105
1"
b00000000000000001000011100000000 -
b11111111111111111111111110011110 +
b00000000000000000111110101011011 ,
b00000000000000000000000010000000 /
#1110
0"
b00000000000000000000000010000100 $
#1115
1"
b00000000000000001000010000000000 -
b00000000000000000000000100110100 +
b00000000000000000111110011111001 ,
b00000000000000000000000001111101 /
#1120
0"
b00000000000000000000000001101100 $
#1125
1"
b00000000000000000110110000000000 -
b00000000000000000000000011100000 +
b00000000000000000111111000101101 ,
b00000000000000000000000001111100 /
#1130
0"
b00000000000000000000000001110101 $
#1135
1"
b00000000000000000111010100000000 -
b11111111111111111111110110111010 +
b00000000000000000111111100001101 ,
b00000000000000000000000001111110 /
#1140
0"
b00000000000000000000000010000100 $
#1145
1"
b00000000000000001000010000000000 -
b11111111111111111111111010111110 +
b00000000000000000111110011000111 ,
b00000000000000000000000001111111 /
#1150
0"
b00000000000000000000000001100100 $
#1155
1"
b00000000000000000110010000000000 -
b00000000000000000000000011100111 +
b00000000000000000111101110000101 ,
b00000000000000000000000001111100 /
#1160
0"
b00000000000000000000000001111101 $
#1165
1"
b00000000000000000111110100000000 -
b11111111111111111111110100001111 +
b00000000000000000111110001101100 ,
b00000000000000000000000001111011 /
#1170
0"
b00000000000000000000000001011101 $
#1175
1"
b00000000000000000101110100000000 -
b00000000000000000000000000010010 +
b00000000000000000111100101111011 ,
b00000000000000000000000001111100 /
#1180
0"
b00000000000000000000000001110101 $
#1185
1"
b00000000000000000111010100000000 -
b11111111111111111111110001110000 +
b00000000000000000111100110001101 ,
b00000000000000000000000001111001 /
#1190
0"
b00000000000000000000000001011011 $
#1195
1"
b00000000000000000101101100000000 -
b11111111111111111111111101101110 +
b00000000000000000111010111111101 ,
#1200
0"
b00000000000000000000000001110101 $
#1205
1"
b00000000000000000111010100000000 -
b11111111111111111111110010100000 +
b00000000000000000111010101101011 ,
b00000000000000000000000001110101 /
#1210
0"
b00000000000000000000000001100101 $
#1215
1"
b00000000000000000110010100000000 -
b11111111111111111111111111110010 +
b00000000000000000111001000001011 ,
#1220
0"
b00000000000000000000000001111001 $
#1225
1"
b00000000000000000111100100000000 -
b11111111111111111111111001011110 +
b00000000000000000111000111111101 ,
b00000000000000000000000001110010 /
#1230
0"
b00000000000000000000000001101110 $
#1235
1"
b00000000000000000110111000000000 -
b00000000000000000000000011100000 +
b00000000000000000111000001011011 ,
b00000000000000000000000001110001 /
#1240
0"
b00000000000000000000000001011000 $
#1245
1"
b00000000000000000101100000000000 -
b11111111111111111111111110110100 +
b00000000000000000111000100111011 ,
b00000000000000000000000001110000 /
#1250
0"
b00000000000000000000000001011011 $
#1255
1"
b00000000000000000101101100000000 -
b11111111111111111111110011011000 +
b00000000000000000111000011101111 ,
b00000000000000000000000001110001 /
#1260
0"
b00000000000000000000000001010011 $
#1265
1"
b00000000000000000101001100000000 -
b11111111111111111111110101000010 +
b00000000000000000110110111000111 ,
b00000000000000000000000001110000 /
#1270
0"
b00000000000000000000000001101100 $
#1275
1"
b00000000000000000110110000000000 -
b11111111111111111111110010100111 +
b00000000000000000110101100001001 ,
b00000000000000000000000001101101 /
#1280
0"
b00000000000000000000000001110001 $
#1285
1"
b00000000000000000111000100000000 -
b00000000000000000000000000011110 +
b00000000000000000110011110110000 ,
b00000000000000000000000001101011 /
#1290
0"
b00000000000000000000000001011111 $
#1295
1"
b00000000000000000101111100000000 -
b00000000000000000000000100101010 +
b00000000000000000110011111001110 ,
b00000000000000000000000001100111 /
#1300
0"
b00000000000000000000000001011110 $
#1305
1"
b00000000000000000101111000000000 -
b11111111111111111111111011100110 +
b00000000000000000110100011111000 ,
#1310
0"
b00000000000000000000000001010000 $
#1315
1"
b00000000000000000101000000000000 -
b11111111111111111111111010100001 +
b00000000000000000110011111011110 ,
b00000000000000000000000001101000 /
#1320
0"
b00000000000000000000000001010101 $
#1325
1"
b00000000000000000101010100000000 -
b11111111111111111111110100000100 +
b00000000000000000110011001111111 ,
b00000000000000000000000001100111 /
#1330
0"
b00000000000000000000000001101011 $
#1335
1"
b00000000000000000110101100000000 -
b11111111111111111111110111010000 +
b00000000000000000110001110000011 ,
b00000000000000000000000001100110 /
#1340
0"
b00000000000000000000000001100010 $
#1345
1"
b00000000000000000110001000000000 -
b00000000000000000000000011101111 +
b00000000000000000110000101010011 ,
b00000000000000000000000001100011 /
#1350
0"
b00000000000000000000000001110100 $
#1355
1"
b00000000000000000111010000000000 -
b00000000000000000000000000010101 +
b00000000000000000110001001000010 ,
b00000000000000000000000001100001 /
#1360
0"
b00000000000000000000000001100000 $
#1365
1"
b00000000000000000110000000000000 -
b00000000000000000000001000110111 +
b00000000000000000110001001010111 ,
b00000000000000000000000001100010 /
#1370
0"
#1375
1"
b11111111111111111111111110110101 +
b00000000000000000110010010001110 ,
#1380
0"
b00000000000000000000000001010010 $
#1385
1"
b00000000000000000101001000000000 -
b11111111111111111111111101101110 +
b00000000000000000110010001000011 ,
b00000000000000000000000001100100 /
#1390
0"
b00000000000000000000000001001111 $
#1395
1"
b00000000000000000100111100000000 -
b11111111111111111111110110110111 +
b00000000000000000110001110110001 ,
#1400
0"
b00000000000000000000000001100001 $
#1405
1"
b00000000000000000110000100000000 -
b11111111111111111111110101101001 +
b00000000000000000110000101101000 ,
b00000000000000000000000001100011 /
#1410
0"
b00000000000000000000000001011110 $
#1415
1"
b00000000000000000101111000000000 -
b11111111111111111111111111110011 +
b00000000000000000101111011010001 ,
b00000000000000000000000001100001 /
#1420
0"
b00000000000000000000000001010111 $
#1425
1"
b00000000000000000101011100000000 -
b11111111111111111111111111100101 +
b00000000000000000101111011000100 ,
b00000000000000000000000001011110 /
#1430
0"
b00000000000000000000000001001111 $
#1435
1"
b00000000000000000100111100000000 -
b11111111111111111111111100000111 +
b00000000000000000101111010101001 ,
#1440
0"
b00000000000000000000000001011100 $
#1445
1"
b00000000000000000101110000000000 -
b11111111111111111111111000001010 +
b00000000000000000101110110110000 ,
#1450
0"
b00000000000000000000000001001001 $
#1455
1"
b00000000000000000100100100000000 -
b11111111111111111111111111001010 +
b00000000000000000101101110111010 ,
b00000000000000000000000001011101 /
#1460
0"
b00000000000000000000000001010111 $
#1465
1"
b00000000000000000101011100000000 -
b11111111111111111111110110101000 +
b00000000000000000101101110000100 ,
b00000000000000000000000001011011 /
#1470
0"
b00000000000000000000000001100011 $
#1475
1"
b00000000000000000110001100000000 -
b11111111111111111111111101101111 +
b00000000000000000101100100101100 ,
#1480
0"
b00000000000000000000000001100010 $
#1485
1"
b00000000000000000110001000000000 -
b00000000000000000000000100111010 +
b00000000000000000101100010011011 ,
b00000000000000000000000001011001 /
#1490
0"
b00000000000000000000000001001100 $
#1495
1"
b00000000000000000100110000000000 -
b00000000000000000000000100101100 +
b00000000000000000101100111010101 ,
b00000000000000000000000001011000 /
#1500
0"
b00000000000000000000000001100010 $
#1505
1"
b00000000000000000110001000000000 -
b11111111111111111111111001000101 +
b00000000000000000101101100000001 ,
b00000000000000000000000001011001 /
#1510
0"
b00000000000000000000000001011001 $
#1515
1"
b00000000000000000101100100000000 -
b00000000000000000000000011011111 +
b00000000000000000101100101000110 ,
b00000000000000000000000001011011 /
#1520
0"
b00000000000000000000000001100111 $
#1525
1"
b00000000000000000110011100000000 -
b11111111111111111111111111110111 +
b00000000000000000101101000100101 ,
b00000000000000000000000001011001 /
#1530
0"
b00000000000000000000000001011111 $
#1535
1"
b00000000000000000101111100000000 -
b00000000000000000000000110011011 +
b00000000000000000101101000011100 ,
b00000000000000000000000001011010 /
#1540
0"
b00000000000000000000000001010011 $
#1545
1"
b00000000000000000101001100000000 -
b00000000000000000000000010011100 +
b00000000000000000101101110110111 ,
#1550
0"
b00000000000000000000000001100011 $
#1555
1"
b00000000000000000110001100000000 -
b11111111111111111111111011101001 +
b00000000000000000101110001010011 ,
b00000000000000000000000001011011 /
#1560
0"
b00000000000000000000000001100110 $
#1565
1"
b00000000000000000110011000000000 -
b00000000000000000000000011010101 +
b00000000000000000101101100111100 ,
b00000000000000000000000001011100 /
#1570
0"
b00000000000000000000000001011011 $
#1575
1"
b00000000000000000101101100000000 -
b00000000000000000000000101011000 +
b00000000000000000101110000010001 ,
b00000000000000000000000001011011 /
#1580
0"
b00000000000000000000000001100011 $
#1585
1"
b00000000000000000110001100000000 -
b11111111111111111111111111011101 +
b00000000000000000101110101101001 ,
b00000000000000000000000001011100 /
#1590
0"
b00000000000000000000000001101101 $
#1595
1"
b00000000000000000110110100000000 -
b00000000000000000000000010110010 +
b00000000000000000101110101000110 ,
b00000000000000000000000001011101 /
#1600
0"
b00000000000000000000000001011010 $
#1605
1"
b00000000000000000101101000000000 -
b00000000000000000000000111110111 +
b00000000000000000101110111111000 ,
#1610
0"
b00000000000000000000000001101101 $
#1615
1"
b00000000000000000110110100000000 -
b11111111111111111111111110000001 +
b00000000000000000101111111101111 ,
#1620
0"
b00000000000000000000000001011010 $
#1625
1"
b00000000000000000101101000000000 -
b00000000000000000000000110100010 +
b00000000000000000101111101110000 ,
b00000000000000000000000001011111 /
#1630
0"
b00000000000000000000000001100001 $
#1635
1"
b00000000000000000110000100000000 -
b11111111111111111111111101010010 +
b00000000000000000110000100010010 ,
#1640
0"
b00000000000000000000000001100101 $
#1645
1"
b00000000000000000110010100000000 -
b11111111111111111111111111111101 +
b00000000000000000110000001100100 ,
b00000000000000000000000001100001 /
#1650
0"
b00000000000000000000000001001100 $
#1655
1"
b00000000000000000100110000000000 -
b00000000000000000000000010010011 +
b00000000000000000110000001100001 ,
b00000000000000000000000001100000 /
#1660
0"
b00000000000000000000000001101101 $
#1665
1"
b00000000000000000110110100000000 -
b11111111111111111111110101110011 +
b00000000000000000110000011110100 ,
#1670
0"
b00000000000000000000000001001110 $
#1675
1"
b00000000000000000100111000000000 -
b00000000000000000000000110000001 +
b00000000000000000101111001100111 ,
#1680
0"
b00000000000000000000000001010100 $
#1685
1"
b00000000000000000101010000000000 -
b11111111111111111111110111110011 +
b00000000000000000101111111101000 ,
b00000000000000000000000001011110 /
#1690
0"
b00000000000000000000000001011110 $
#1695
1"
b00000000000000000101111000000000 -
b11111111111111111111111010000011 +
b00000000000000000101110111011011 ,
b00000000000000000000000001011111 /
#1700
0"
b00000000000000000000000001011111 $
#1705
1"
b00000000000000000101111100000000 -
b00000000000000000000000000000100 +
b00000000000000000101110001011110 ,
b00000000000000000000000001011101 /
#1710
0"
b00000000000000000000000001101101 $
#1715
1"
b00000000000000000110110100000000 -
b00000000000000000000000001010100 +
b00000000000000000101110001100010 ,
b00000000000000000000000001011100 /
#1720
0"
b00000000000000000000000001001001 $
#1725
1"
b00000000000000000100100100000000 -
b00000000000000000000001000010011 +
b00000000000000000101110010110110 ,
#1730
0"
b00000000000000000000000001001101 $
#1735
1"
b00000000000000000100110100000000 -
b11111111111111111111110110001001 +
b00000000000000000101111011001001 ,
#1740
0"
b00000000000000000000000001110000 $
