out/testbench/my_rc_tb.1544022868.240888.vcd
$date
    Wed Dec  5 16:14:28 2018
$end
$version
    MyHDL 0.10
$end
$timescale
    1ns
$end

$scope module my_rc_tb $end
$var reg 1 ! reset $end
$var reg 1 " clk $end
$var reg 1 # axis_raw_tvalid $end
$var reg 32 $ axis_raw_tdata $end
$var reg 1 % axis_raw_tlast $end
$var reg 1 & axis_raw_tready $end
$var reg 1 ' axis_sum_tready $end
$var reg 1 ( axis_sum_tlast $end
$scope module clk_stim0 $end
$var reg 1 " clk $end
$upscope $end
$scope module my_rc $end
$var reg 32 ) vin $end
$var reg 1 ! reset $end
$var reg 1 " clk $end
$var real 1 * state $end
$var reg 32 + d $end
$var reg 32 , Vout $end
$var reg 32 - Vin $end
$var reg 1 . axis_m_sum_tvalid $end
$var reg 1 ( axis_m_sum_tlast $end
$var reg 1 & axis_s_raw_tready $end
$var reg 1 # axis_s_raw_tvalid $end
$var reg 32 $ axis_s_raw_tdata $end
$var reg 32 / axis_m_sum_tdata $end
$var reg 1 % axis_s_raw_tlast $end
$var reg 1 ' axis_m_sum_tready $end
$upscope $end
$upscope $end

$enddefinitions $end
$dumpvars
0!
0"
0#
b00000000000000000000000000000000 $
0%
0&
0'
0(
b00000000000000000000000000000000 )
sSTART *
b00000000000000000000000000000000 +
b00000000000000000000000000000000 ,
b00000000000000000000000000000000 -
0.
b00000000000000000000000000000000 /
$end
#5
1"
#10
0"
#15
1"
#20
0"
#25
1"
#30
0"
#35
1"
#40
0"
#45
1"
#50
0"
#54
#55
1"
#60
0"
1!
#65
1"
sCALCULATE *
#70
0"
1#
b00000000000000000000000001101101 $
#75
1"
1.
1&
b00000000000000000110110100000000 -
#80
0"
#85
1"
b00000000000000000000110110100000 +
#90
0"
b00000000000000000000000001111111 $
#95
1"
b00000000000000000111111100000000 -
b00000000000000000000110110100000 ,
#100
0"
b00000000000000000000000010001010 $
#105
1"
b00000000000000001000101000000000 -
b00000000000000000000111000101100 +
b00000000000000000001101101000000 ,
b00000000000000000000000000001101 /
#110
0"
b00000000000000000000000010001000 $
#115
1"
b00000000000000001000100000000000 -
b00000000000000000000110111011000 +
b00000000000000000010100101101100 ,
b00000000000000000000000000011011 /
#120
0"
b00000000000000000000000010001111 $
#125
1"
b00000000000000001000111100000000 -
b00000000000000000000101111010010 +
b00000000000000000011011101000100 ,
b00000000000000000000000000101001 /
#130
0"
b00000000000000000000000001101101 $
#135
1"
b00000000000000000110110100000000 -
b00000000000000000000101011110111 +
b00000000000000000100001100010110 ,
b00000000000000000000000000110111 /
#140
0"
b00000000000000000000000010010000 $
#145
1"
b00000000000000001001000000000000 -
b00000000000000000000010100111101 +
b00000000000000000100111000001101 ,
b00000000000000000000000001000011 /
#150
0"
b00000000000000000000000001101110 $
#155
1"
b00000000000000000110111000000000 -
b00000000000000000000100000111110 +
b00000000000000000101001101001010 ,
b00000000000000000000000001001110 /
#160
0"
b00000000000000000000000010000101 $
#165
1"
b00000000000000001000010100000000 -
b00000000000000000000001101010110 +
b00000000000000000101101110001000 ,
b00000000000000000000000001010011 /
#170
0"
b00000000000000000000000001101101 $
#175
1"
b00000000000000000110110100000000 -
b00000000000000000000010100101111 +
b00000000000000000101111011011110 ,
b00000000000000000000000001011011 /
#180
0"
b00000000000000000000000001110000 $
#185
1"
b00000000000000000111000000000000 -
b00000000000000000000000111000100 +
b00000000000000000110010000001101 ,
b00000000000000000000000001011110 /
#190
0"
b00000000000000000000000010001000 $
#195
1"
b00000000000000001000100000000000 -
b00000000000000000000000101111110 +
b00000000000000000110010111010001 ,
b00000000000000000000000001100100 /
#200
0"
b00000000000000000000000001110010 $
#205
1"
b00000000000000000111001000000000 -
b00000000000000000000010001000101 +
b00000000000000000110011101001111 ,
b00000000000000000000000001100101 /
#210
0"
b00000000000000000000000010001000 $
#215
1"
b00000000000000001000100000000000 -
b00000000000000000000000101010110 +
b00000000000000000110101110010100 ,
b00000000000000000000000001100111 /
#220
0"
b00000000000000000000000010001001 $
#225
1"
b00000000000000001000100100000000 -
b00000000000000000000001110001101 +
b00000000000000000110110011101010 ,
b00000000000000000000000001101011 /
#230
0"
b00000000000000000000000001111101 $
#235
1"
b00000000000000000111110100000000 -
b00000000000000000000001110000010 +
b00000000000000000111000001110111 ,
b00000000000000000000000001101100 /
#240
0"
b00000000000000000000000010000110 $
#245
1"
b00000000000000001000011000000000 -
b00000000000000000000000110010001 +
b00000000000000000111001111111001 ,
b00000000000000000000000001110000 /
#250
0"
b00000000000000000000000010010101 $
#255
1"
b00000000000000001001010100000000 -
b00000000000000000000001001000000 +
b00000000000000000111010110001010 ,
b00000000000000000000000001110011 /
#260
0"
#265
1"
b00000000000000000000001111101110 +
b00000000000000000111011111001010 ,
b00000000000000000000000001110101 /
#270
0"
b00000000000000000000000010000011 $
#275
1"
b00000000000000001000001100000000 -
b00000000000000000000001110100110 +
b00000000000000000111101110111000 ,
b00000000000000000000000001110111 /
#280
0"
b00000000000000000000000010000111 $
#285
1"
b00000000000000001000011100000000 -
b00000000000000000000000011101001 +
b00000000000000000111111101011110 ,
b00000000000000000000000001111011 /
#290
0"
b00000000000000000000000010001001 $
#295
1"
b00000000000000001000100100000000 -
b00000000000000000000000011110100 +
b00000000000000001000000001000111 ,
b00000000000000000000000001111111 /
#300
0"
b00000000000000000000000001111110 $
#305
1"
b00000000000000000111111000000000 -
b00000000000000000000000100010111 +
b00000000000000001000000100111011 ,
b00000000000000000000000010000000 /
#310
0"
b00000000000000000000000001111100 $
#315
1"
b00000000000000000111110000000000 -
b11111111111111111111111110011000 +
b00000000000000001000001001010010 ,
b00000000000000000000000010000001 /
#320
0"
b00000000000000000000000010010111 $
#325
1"
b00000000000000001001011100000000 -
b11111111111111111111111100110101 +
b00000000000000001000000111101010 ,
b00000000000000000000000010000010 /
#330
0"
b00000000000000000000000010010011 $
#335
1"
b00000000000000001001001100000000 -
b00000000000000000000001010100010 +
b00000000000000001000000100011111 ,
b00000000000000000000000010000001 /
#340
0"
b00000000000000000000000010010100 $
#345
1"
b00000000000000001001010000000000 -
b00000000000000000000001000111100 +
b00000000000000001000001111000001 ,
#350
0"
b00000000000000000000000010001111 $
#355
1"
b00000000000000001000111100000000 -
b00000000000000000000001000000111 +
b00000000000000001000010111111101 ,
b00000000000000000000000010000011 /
#360
0"
b00000000000000000000000010011010 $
#365
1"
b00000000000000001001101000000000 -
b00000000000000000000000100100000 +
b00000000000000001000100000000100 ,
b00000000000000000000000010000101 /
#370
0"
b00000000000000000000000010001010 $
#375
1"
b00000000000000001000101000000000 -
b00000000000000000000001000111111 +
b00000000000000001000100100100100 ,
b00000000000000000000000010001000 /
#380
0"
b00000000000000000000000001111110 $
#385
1"
b00000000000000000111111000000000 -
b00000000000000000000000000011011 +
b00000000000000001000101101100011 ,
b00000000000000000000000010001001 /
#390
0"
b00000000000000000000000010011100 $
#395
1"
b00000000000000001001110000000000 -
b11111111111111111111111001010011 +
b00000000000000001000101101111110 ,
b00000000000000000000000010001011 /
#400
0"
b00000000000000000000000010000001 $
#405
1"
b00000000000000001000000100000000 -
b00000000000000000000001000010000 +
b00000000000000001000100111010001 ,
#410
0"
b00000000000000000000000010100100 $
#415
1"
b00000000000000001010010000000000 -
b11111111111111111111111011100101 +
b00000000000000001000101111100001 ,
b00000000000000000000000010001001 /
#420
0"
b00000000000000000000000010010010 $
#425
1"
b00000000000000001001001000000000 -
b00000000000000000000001100000011 +
b00000000000000001000101011000110 ,
b00000000000000000000000010001011 /
#430
0"
b00000000000000000000000010000010 $
#435
1"
b00000000000000001000001000000000 -
b00000000000000000000000011100111 +
b00000000000000001000110111001001 ,
b00000000000000000000000010001010 /
#440
0"
b00000000000000000000000010100110 $
#445
1"
b00000000000000001010011000000000 -
b11111111111111111111111010000110 +
b00000000000000001000111010110000 ,
b00000000000000000000000010001101 /
#450
0"
b00000000000000000000000010010110 $
#455
1"
b00000000000000001001011000000000 -
b00000000000000000000001011101010 +
b00000000000000001000110100110110 ,
b00000000000000000000000010001110 /
#460
0"
b00000000000000000000000010011101 $
#465
1"
b00000000000000001001110100000000 -
b00000000000000000000000100011001 +
b00000000000000001001000000100000 ,
b00000000000000000000000010001101 /
#470
0"
b00000000000000000000000010011000 $
#475
1"
b00000000000000001001100000000000 -
b00000000000000000000000110011100 +
b00000000000000001001000100111001 ,
b00000000000000000000000010010000 /
#480
0"
b00000000000000000000000010001010 $
#485
1"
b00000000000000001000101000000000 -
b00000000000000000000000011011000 +
b00000000000000001001001011010101 ,
b00000000000000000000000010010001 /
#490
0"
b00000000000000000000000010010000 $
#495
1"
b00000000000000001001000000000000 -
b11111111111111111111111011100101 +
b00000000000000001001001110101101 ,
b00000000000000000000000010010010 /
#500
0"
b00000000000000000000000010001010 $
#505
1"
b00000000000000001000101000000000 -
b11111111111111111111111110001010 +
b00000000000000001001001010010010 ,
b00000000000000000000000010010011 /
#510
0"
b00000000000000000000000010001111 $
#515
1"
b00000000000000001000111100000000 -
b11111111111111111111111011101101 +
b00000000000000001001001000011100 ,
b00000000000000000000000010010010 /
#520
0"
b00000000000000000000000010001101 $
#525
1"
b00000000000000001000110100000000 -
b11111111111111111111111110011100 +
b00000000000000001001000100001001 ,
#530
0"
b00000000000000000000000010010100 $
#535
1"
b00000000000000001001010000000000 -
b11111111111111111111111101111110 +
b00000000000000001001000010100101 ,
b00000000000000000000000010010001 /
#540
0"
b00000000000000000000000010010001 $
#545
1"
b00000000000000001001000100000000 -
b00000000000000000000000001101011 +
b00000000000000001001000000100011 ,
b00000000000000000000000010010000 /
#550
0"
b00000000000000000000000010100101 $
#555
1"
b00000000000000001010010100000000 -
b00000000000000000000000000011011 +
b00000000000000001001000010001110 ,
#560
0"
b00000000000000000000000010001101 $
#565
1"
b00000000000000001000110100000000 -
b00000000000000000000001010001110 +
b00000000000000001001000010101001 ,
#570
0"
b00000000000000000000000010011000 $
#575
1"
b00000000000000001001100000000000 -
b11111111111111111111111110001010 +
b00000000000000001001001100110111 ,
#580
0"
b00000000000000000000000010000100 $
#585
1"
b00000000000000001000010000000000 -
b00000000000000000000000010011001 +
b00000000000000001001001011000001 ,
b00000000000000000000000010010011 /
#590
0"
b00000000000000000000000010100101 $
#595
1"
b00000000000000001010010100000000 -
b11111111111111111111111000100111 +
b00000000000000001001001101011010 ,
b00000000000000000000000010010010 /
#600
0"
b00000000000000000000000010100001 $
#605
1"
b00000000000000001010000100000000 -
b00000000000000000000001000110100 +
b00000000000000001001000110000001 ,
b00000000000000000000000010010011 /
#610
0"
b00000000000000000000000010101001 $
#615
1"
b00000000000000001010100100000000 -
b00000000000000000000000111101111 +
b00000000000000001001001110110101 ,
b00000000000000000000000010010001 /
#620
0"
b00000000000000000000000010011000 $
#625
1"
b00000000000000001001100000000000 -
b00000000000000000000001010101001 +
b00000000000000001001010110100100 ,
b00000000000000000000000010010011 /
#630
0"
b00000000000000000000000010011001 $
#635
1"
b00000000000000001001100100000000 -
b00000000000000000000000001001011 +
b00000000000000001001100001001101 ,
b00000000000000000000000010010101 /
#640
0"
b00000000000000000000000010000100 $
#645
1"
b00000000000000001000010000000000 -
b00000000000000000000000000010110 +
b00000000000000001001100010011000 ,
b00000000000000000000000010011000 /
#650
0"
b00000000000000000000000010000011 $
#655
1"
b00000000000000001000001100000000 -
b11111111111111111111110101101101 +
b00000000000000001001100010101110 ,
#660
0"
b00000000000000000000000010010100 $
#661
#665
1"
b00000000000000001001010000000000 -
b11111111111111111111110101001010 +
b00000000000000001001011000011011 ,
#670
0"
1'
b00000000000000000000000010010111 $
#675
1"
b00000000000000001001011100000000 -
b11111111111111111111111110111100 +
b00000000000000001001001101100101 ,
b00000000000000000000000010010110 /
#680
0"
b00000000000000000000000010100101 $
#685
1"
b00000000000000001010010100000000 -
b00000000000000000000000001110011 +
b00000000000000001001001100100001 ,
b00000000000000000000000010010011 /
#690
0"
b00000000000000000000000010010000 $
#695
1"
b00000000000000001001000000000000 -
b00000000000000000000001000111011 +
b00000000000000001001001110010100 ,
#700
0"
b00000000000000000000000001111111 $
#705
1"
b00000000000000000111111100000000 -
b11111111111111111111111110001101 +
b00000000000000001001010111001111 ,
#710
0"
b00000000000000000000000010100100 $
#715
1"
b00000000000000001010010000000000 -
b11111111111111111111110100100110 +
b00000000000000001001010101011100 ,
b00000000000000000000000010010101 /
#720
0"
b00000000000000000000000010011111 $
#725
1"
b00000000000000001001111100000000 -
b00000000000000000000000111010100 +
b00000000000000001001001010000010 ,
#730
0"
b00000000000000000000000010000000 $
#735
1"
b00000000000000001000000000000000 -
b00000000000000000000000110001111 +
b00000000000000001001010001010110 ,
b00000000000000000000000010010010 /
#740
0"
b00000000000000000000000010010011 $
#745
1"
b00000000000000001001001100000000 -
b11111111111111111111110101110101 +
b00000000000000001001010111100101 ,
b00000000000000000000000010010100 /
#750
0"
b00000000000000000000000010010000 $
#755
1"
b00000000000000001001000000000000 -
b11111111111111111111111110100011 +
b00000000000000001001001101011010 ,
b00000000000000000000000010010101 /
#760
0"
b00000000000000000000000010100001 $
#765
1"
b00000000000000001010000100000000 -
b11111111111111111111111110010100 +
b00000000000000001001001011111101 ,
b00000000000000000000000010010011 /
#770
0"
b00000000000000000000000010100000 $
#775
1"
b00000000000000001010000000000000 -
b00000000000000000000000111000000 +
b00000000000000001001001010010001 ,
b00000000000000000000000010010010 /
#780
0"
b00000000000000000000000010100001 $
#785
1"
b00000000000000001010000100000000 -
b00000000000000000000000110101101 +
b00000000000000001001010001010001 ,
#790
0"
b00000000000000000000000010011111 $
#795
1"
b00000000000000001001111100000000 -
b00000000000000000000000110010101 +
b00000000000000001001010111111110 ,
b00000000000000000000000010010100 /
#800
0"
b00000000000000000000000010010111 $
#805
1"
b00000000000000001001011100000000 -
b00000000000000000000000100100000 +
b00000000000000001001011110010011 ,
b00000000000000000000000010010101 /
#810
0"
b00000000000000000000000010100001 $
#815
1"
b00000000000000001010000100000000 -
b11111111111111111111111111101101 +
b00000000000000001001100010110011 ,
b00000000000000000000000010010111 /
#820
0"
b00000000000000000000000010011010 $
#825
1"
b00000000000000001001101000000000 -
b00000000000000000000000100001001 +
b00000000000000001001100010100000 ,
b00000000000000000000000010011000 /
#830
0"
b00000000000000000000000010011110 $
#835
1"
b00000000000000001001111000000000 -
b00000000000000000000000000101100 +
b00000000000000001001100110101001 ,
#840
0"
b00000000000000000000000010000010 $
#845
1"
b00000000000000001000001000000000 -
b00000000000000000000000010001010 +
b00000000000000001001100111010101 ,
b00000000000000000000000010011001 /
#850
0"
b00000000000000000000000010000011 $
#855
1"
b00000000000000001000001100000000 -
b11111111111111111111110100000101 +
b00000000000000001001101001011111 ,
#860
0"
b00000000000000000000000010000000 $
#865
1"
b00000000000000001000000000000000 -
b11111111111111111111110100010100 +
b00000000000000001001011101100100 ,
b00000000000000000000000010011010 /
#870
0"
b00000000000000000000000010000011 $
#875
1"
b00000000000000001000001100000000 -
b11111111111111111111110100010011 +
b00000000000000001001010001111000 ,
b00000000000000000000000010010111 /
#880
0"
b00000000000000000000000001110111 $
#885
1"
b00000000000000000111011100000000 -
b11111111111111111111110111010001 +
b00000000000000001001000110001011 ,
b00000000000000000000000010010100 /
#890
0"
b00000000000000000000000001111000 $
#895
1"
b00000000000000000111100000000000 -
b11111111111111111111110010101110 +
b00000000000000001000111101011100 ,
b00000000000000000000000010010001 /
#900
0"
b00000000000000000000000010010101 $
#905
1"
b00000000000000001001010100000000 -
b11111111111111111111110100010100 +
b00000000000000001000110000001010 ,
b00000000000000000000000010001111 /
#910
0"
b00000000000000000000000010001001 $
#915
1"
b00000000000000001000100100000000 -
b00000000000000000000000100011110 +
b00000000000000001000100100011110 ,
b00000000000000000000000010001100 /
#920
0"
b00000000000000000000000010000000 $
#925
1"
b00000000000000001000000000000000 -
b11111111111111111111111111111100 +
b00000000000000001000101000111100 ,
b00000000000000000000000010001001 /
#930
0"
b00000000000000000000000001111010 $
#935
1"
b00000000000000000111101000000000 -
b11111111111111111111111010111000 +
b00000000000000001000101000111000 ,
b00000000000000000000000010001010 /
#940
0"
b00000000000000000000000001111110 $
#945
1"
b00000000000000000111111000000000 -
b11111111111111111111110111111001 +
b00000000000000001000100011110000 ,
#950
0"
b00000000000000000000000010010000 $
#955
1"
b00000000000000001001000000000000 -
b11111111111111111111111010100010 +
b00000000000000001000011011101001 ,
b00000000000000000000000010001000 /
#960
0"
b00000000000000000000000001110010 $
#965
1"
b00000000000000000111001000000000 -
b00000000000000000000000100100010 +
b00000000000000001000010110001011 ,
b00000000000000000000000010000110 /
#970
0"
b00000000000000000000000010001010 $
#975
1"
b00000000000000001000101000000000 -
b11111111111111111111110110001110 +
b00000000000000001000011010101101 ,
b00000000000000000000000010000101 /
#980
0"
b00000000000000000000000010010011 $
#985
1"
b00000000000000001001001100000000 -
b00000000000000000000000001101010 +
b00000000000000001000010000111011 ,
b00000000000000000000000010000110 /
#990
0"
b00000000000000000000000010000000 $
#995
1"
b00000000000000001000000000000000 -
b00000000000000000000000111011000 +
b00000000000000001000010010100101 ,
b00000000000000000000000010000100 /
#1000
0"
b00000000000000000000000001110010 $
#1005
1"
b00000000000000000111001000000000 -
b11111111111111111111111101101011 +
b00000000000000001000011001111101 ,
#1010
0"
b00000000000000000000000001111010 $
#1015
1"
b00000000000000000111101000000000 -
b11111111111111111111110101110000 +
b00000000000000001000010111101000 ,
b00000000000000000000000010000110 /
#1020
0"
b00000000000000000000000001101001 $
#1025
1"
b00000000000000000110100100000000 -
b11111111111111111111111010000011 +
b00000000000000001000001101011000 ,
b00000000000000000000000010000101 /
#1030
0"
b00000000000000000000000001111010 $
#1035
1"
b00000000000000000111101000000000 -
b11111111111111111111110010110101 +
b00000000000000001000000111011011 ,
b00000000000000000000000010000011 /
#1040
0"
b00000000000000000000000001101010 $
#1045
1"
b00000000000000000110101000000000 -
b11111111111111111111111100000100 +
b00000000000000000111111010010000 ,
b00000000000000000000000010000001 /
#1050
0"
b00000000000000000000000010000111 $
#1055
1"
b00000000000000001000011100000000 -
b11111111111111111111110101101110 +
b00000000000000000111110110010100 ,
b00000000000000000000000001111110 /
#1060
0"
b00000000000000000000000001110100 $
#1065
1"
b00000000000000000111010000000000 -
b00000000000000000000000100101101 +
b00000000000000000111101100000010 ,
b00000000000000000000000001111101 /
#1070
0"
b00000000000000000000000001101101 $
#1075
1"
b00000000000000000110110100000000 -
b11111111111111111111111100011111 +
b00000000000000000111110000101111 ,
b00000000000000000000000001111011 /
#1080
0"
b00000000000000000000000010000101 $
#1085
1"
b00000000000000001000010100000000 -
b11111111111111111111111000011010 +
b00000000000000000111101101001110 ,
b00000000000000000000000001111100 /
#1090
0"
b00000000000000000000000001111011 $
#1095
1"
b00000000000000000111101100000000 -
b00000000000000000000000100110110 +
b00000000000000000111100101101000 ,
b00000000000000000000000001111011 /
#1100
0"
b00000000000000000000000001101100 $
#1105
1"
b00000000000000000110110000000000 -
b00000000000000000000000000110011 +
b00000000000000000111101010011110 ,
b00000000000000000000000001111001 /
#1110
0"
b00000000000000000000000010000001 $
#1115
1"
b00000000000000001000000100000000 -
b11111111111111111111111000101100 +
b00000000000000000111101011010001 ,
b00000000000000000000000001111010 /
#1120
0"
b00000000000000000000000001110000 $
#1125
1"
b00000000000000000111000000000000 -
b00000000000000000000000011000101 +
b00000000000000000111100011111101 ,
#1130
0"
b00000000000000000000000001101000 $
#1135
1"
b00000000000000000110100000000000 -
b11111111111111111111111011100000 +
b00000000000000000111100111000010 ,
b00000000000000000000000001111000 /
#1140
0"
b00000000000000000000000001100000 $
#1145
1"
b00000000000000000110000000000000 -
b11111111111111111111110111000111 +
b00000000000000000111100010100010 ,
b00000000000000000000000001111001 /
#1150
0"
b00000000000000000000000001100111 $
#1155
1"
b00000000000000000110011100000000 -
b11111111111111111111110011101011 +
b00000000000000000111011001101001 ,
b00000000000000000000000001111000 /
#1160
0"
b00000000000000000000000001101000 $
#1165
1"
b00000000000000000110100000000000 -
b11111111111111111111111000010010 +
b00000000000000000111001101010100 ,
b00000000000000000000000001110110 /
#1170
0"
b00000000000000000000000001111111 $
#1175
1"
b00000000000000000111111100000000 -
b11111111111111111111111010010101 +
b00000000000000000111000101100110 ,
b00000000000000000000000001110011 /
#1180
0"
b00000000000000000000000010000000 $
#1185
1"
b00000000000000001000000000000000 -
b00000000000000000000000110110011 +
b00000000000000000110111111111011 ,
b00000000000000000000000001110001 /
#1190
0"
b00000000000000000000000001011110 $
#1195
1"
b00000000000000000101111000000000 -
b00000000000000000000001000000000 +
b00000000000000000111000110101110 ,
b00000000000000000000000001101111 /
#1200
0"
b00000000000000000000000001101110 $
#1205
1"
b00000000000000000110111000000000 -
b11111111111111111111110110001010 +
b00000000000000000111001110101110 ,
b00000000000000000000000001110001 /
#1210
0"
b00000000000000000000000001110010 $
#1215
1"
b00000000000000000111001000000000 -
b11111111111111111111111101001010 +
b00000000000000000111000100111000 ,
b00000000000000000000000001110011 /
#1220
0"
b00000000000000000000000001110011 $
#1225
1"
b00000000000000000111001100000000 -
b00000000000000000000000000011001 +
b00000000000000000111000010000010 ,
b00000000000000000000000001110001 /
#1230
0"
b00000000000000000000000001101000 $
#1235
1"
b00000000000000000110100000000000 -
b00000000000000000000000001001111 +
b00000000000000000111000010011011 ,
b00000000000000000000000001110000 /
#1240
0"
b00000000000000000000000001010111 $
#1245
1"
b00000000000000000101011100000000 -
b11111111111111111111111011101100 +
b00000000000000000111000011101010 ,
#1250
0"
b00000000000000000000000001110001 $
#1255
1"
b00000000000000000111000100000000 -
b11111111111111111111110011000010 +
b00000000000000000110111111010110 ,
#1260
0"
b00000000000000000000000001011101 $
#1265
1"
b00000000000000000101110100000000 -
b00000000000000000000000000100101 +
b00000000000000000110110010011000 ,
b00000000000000000000000001101111 /
#1270
0"
b00000000000000000000000001100101 $
#1275
1"
b00000000000000000110010100000000 -
b11111111111111111111111000001101 +
b00000000000000000110110010111101 ,
b00000000000000000000000001101100 /
#1280
0"
b00000000000000000000000001100011 $
#1285
1"
b00000000000000000110001100000000 -
b11111111111111111111111100001000 +
b00000000000000000110101011001010 ,
#1290
0"
#1295
1"
b11111111111111111111111100000110 +
b00000000000000000110100111010010 ,
b00000000000000000000000001101010 /
#1300
0"
b00000000000000000000000001010100 $
#1305
1"
b00000000000000000101010000000000 -
b11111111111111111111111100100101 +
b00000000000000000110100011011000 ,
b00000000000000000000000001101001 /
#1310
0"
b00000000000000000000000001011111 $
#1315
1"
b00000000000000000101111100000000 -
b11111111111111111111110101100101 +
b00000000000000000110011111111101 ,
b00000000000000000000000001101000 /
#1320
0"
b00000000000000000000000001001111 $
#1325
1"
b00000000000000000100111100000000 -
b11111111111111111111111011100000 +
b00000000000000000110010101100010 ,
b00000000000000000000000001100111 /
#1330
0"
b00000000000000000000000001100010 $
#1335
1"
b00000000000000000110001000000000 -
b11111111111111111111110100110011 +
b00000000000000000110010001000010 ,
b00000000000000000000000001100101 /
#1340
0"
b00000000000000000000000001011011 $
#1345
1"
b00000000000000000101101100000000 -
b11111111111111111111111110110111 +
b00000000000000000110000101110101 ,
b00000000000000000000000001100100 /
#1350
0"
b00000000000000000000000001011110 $
#1355
1"
b00000000000000000101111000000000 -
b11111111111111111111111100110001 +
b00000000000000000110000100101100 ,
b00000000000000000000000001100001 /
#1360
0"
b00000000000000000000000001010101 $
#1365
1"
b00000000000000000101010100000000 -
b11111111111111111111111110011010 +
b00000000000000000110000001011101 ,
#1370
0"
b00000000000000000000000001001100 $
#1375
1"
b00000000000000000100110000000000 -
b11111111111111111111111010010100 +
b00000000000000000101111111110111 ,
b00000000000000000000000001100000 /
#1380
0"
b00000000000000000000000001110001 $
#1385
1"
b00000000000000000111000100000000 -
b11111111111111111111110110000001 +
b00000000000000000101111010001011 ,
b00000000000000000000000001011111 /
#1390
0"
b00000000000000000000000001010101 $
#1395
1"
b00000000000000000101010100000000 -
b00000000000000000000001001001110 +
b00000000000000000101110000001100 ,
b00000000000000000000000001011110 /
#1400
0"
b00000000000000000000000001101100 $
#1405
1"
b00000000000000000110110000000000 -
b11111111111111111111111100011110 +
b00000000000000000101111001011010 ,
b00000000000000000000000001011100 /
#1410
0"
b00000000000000000000000001100011 $
#1415
1"
b00000000000000000110001100000000 -
b00000000000000000000000110110100 +
b00000000000000000101110101111000 ,
b00000000000000000000000001011110 /
#1420
0"
b00000000000000000000000001010000 $
#1425
1"
b00000000000000000101000000000000 -
b00000000000000000000000010110001 +
b00000000000000000101111100101100 ,
b00000000000000000000000001011101 /
#1430
0"
b00000000000000000000000001001001 $
#1435
1"
b00000000000000000100100100000000 -
b11111111111111111111111000011010 +
b00000000000000000101111111011101 ,
b00000000000000000000000001011111 /
#1440
0"
b00000000000000000000000001011001 $
#1445
1"
b00000000000000000101100100000000 -
b11111111111111111111110100100100 +
b00000000000000000101110111110111 ,
#1450
0"
b00000000000000000000000001100011 $
#1455
1"
b00000000000000000110001100000000 -
b11111111111111111111111101100001 +
b00000000000000000101101100011011 ,
b00000000000000000000000001011101 /
#1460
0"
b00000000000000000000000001100100 $
#1465
1"
b00000000000000000110010000000000 -
b00000000000000000000000011111100 +
b00000000000000000101101001111100 ,
b00000000000000000000000001011011 /
#1470
0"
b00000000000000000000000001011001 $
#1475
1"
b00000000000000000101100100000000 -
b00000000000000000000000100110000 +
b00000000000000000101101101111000 ,
b00000000000000000000000001011010 /
#1480
0"
b00000000000000000000000001101100 $
#1485
1"
b00000000000000000110110000000000 -
b11111111111111111111111110110001 +
b00000000000000000101110010101000 ,
b00000000000000000000000001011011 /
#1490
0"
b00000000000000000000000001100100 $
#1495
1"
b00000000000000000110010000000000 -
b00000000000000000000000111101011 +
b00000000000000000101110001011001 ,
b00000000000000000000000001011100 /
#1500
0"
b00000000000000000000000001101101 $
#1505
1"
b00000000000000000110110100000000 -
b00000000000000000000000011110100 +
b00000000000000000101111001000100 ,
#1510
0"
b00000000000000000000000001011000 $
#1515
1"
b00000000000000000101100000000000 -
b00000000000000000000000111010111 +
b00000000000000000101111100111000 ,
b00000000000000000000000001011110 /
#1520
0"
b00000000000000000000000001011100 $
#1525
1"
b00000000000000000101110000000000 -
b11111111111111111111111100011001 +
b00000000000000000110000100001111 ,
b00000000000000000000000001011111 /
#1530
0"
b00000000000000000000000001001110 $
#1535
1"
b00000000000000000100111000000000 -
b11111111111111111111111101011110 +
b00000000000000000110000000101000 ,
b00000000000000000000000001100001 /
#1540
0"
#1545
1"
b11111111111111111111110110111011 +
b00000000000000000101111110000110 ,
b00000000000000000000000001100000 /
#1550
0"
b00000000000000000000000001010111 $
#1555
1"
b00000000000000000101011100000000 -
b11111111111111111111110111001111 +
b00000000000000000101110101000001 ,
b00000000000000000000000001011111 /
#1560
0"
#1565
1"
b11111111111111111111111100110111 +
b00000000000000000101101100010000 ,
b00000000000000000000000001011101 /
#1570
0"
b00000000000000000000000001010001 $
#1575
1"
b00000000000000000101000100000000 -
b11111111111111111111111101111110 +
b00000000000000000101101001000111 ,
b00000000000000000000000001011011 /
#1580
0"
b00000000000000000000000001011110 $
#1585
1"
b00000000000000000101111000000000 -
b11111111111111111111111011010111 +
b00000000000000000101100111000101 ,
b00000000000000000000000001011010 /
#1590
0"
b00000000000000000000000001011011 $
#1595
1"
b00000000000000000101101100000000 -
b00000000000000000000000010000111 +
b00000000000000000101100010011100 ,
b00000000000000000000000001011001 /
#1600
0"
b00000000000000000000000001001010 $
#1605
1"
b00000000000000000100101000000000 -
b00000000000000000000000001001100 +
b00000000000000000101100100100011 ,
b00000000000000000000000001011000 /
#1610
0"
b00000000000000000000000001010001 $
#1615
1"
b00000000000000000101000100000000 -
b11111111111111111111111000011011 +
b00000000000000000101100101101111 ,
b00000000000000000000000001011001 /
#1620
0"
b00000000000000000000000001010100 $
#1625
1"
b00000000000000000101010000000000 -
b11111111111111111111111011110010 +
b00000000000000000101011110001010 ,
#1630
0"
b00000000000000000000000001101011 $
#1635
1"
b00000000000000000110101100000000 -
b11111111111111111111111110001110 +
b00000000000000000101011001111100 ,
b00000000000000000000000001010111 /
#1640
0"
b00000000000000000000000001101100 $
#1645
1"
b00000000000000000110110000000000 -
b00000000000000000000001010010000 +
b00000000000000000101011000001010 ,
b00000000000000000000000001010110 /
#1650
0"
b00000000000000000000000001101011 $
#1655
1"
b00000000000000000110101100000000 -
b00000000000000000000001010111110 +
b00000000000000000101100010011010 ,
#1660
0"
b00000000000000000000000001010100 $
#1665
1"
b00000000000000000101010000000000 -
b00000000000000000000001001001100 +
b00000000000000000101101101011000 ,
b00000000000000000000000001011000 /
#1670
0"
b00000000000000000000000001100000 $
#1675
1"
b00000000000000000110000000000000 -
b11111111111111111111111100010101 +
b00000000000000000101110110100100 ,
b00000000000000000000000001011011 /
#1680
0"
b00000000000000000000000001100101 $
#1685
1"
b00000000000000000110010100000000 -
b00000000000000000000000001001011 +
b00000000000000000101110010111001 ,
b00000000000000000000000001011101 /
#1690
0"
b00000000000000000000000001100111 $
#1695
1"
b00000000000000000110011100000000 -
b00000000000000000000000100001000 +
b00000000000000000101110100000100 ,
b00000000000000000000000001011100 /
#1700
0"
b00000000000000000000000001001110 $
#1705
1"
b00000000000000000100111000000000 -
b00000000000000000000000100111111 +
b00000000000000000101111000001100 ,
b00000000000000000000000001011101 /
#1710
0"
b00000000000000000000000001010011 $
#1715
1"
b00000000000000000101001100000000 -
b11111111111111111111110111111110 +
b00000000000000000101111101001011 ,
b00000000000000000000000001011110 /
#1720
0"
b00000000000000000000000001110000 $
#1725
1"
b00000000000000000111000000000000 -
b11111111111111111111111001110110 +
b00000000000000000101110101001001 ,
b00000000000000000000000001011111 /
#1730
0"
b00000000000000000000000001011000 $
